<?xml version="1.0" encoding="utf-8"?>
<!-- Generator: Adobe Illustrator 16.0.3, SVG Export Plug-In . SVG Version: 6.00 Build 0)  -->
<!DOCTYPE svg PUBLIC "-//W3C//DTD SVG 1.1//EN" "http://www.w3.org/Graphics/SVG/1.1/DTD/svg11.dtd">
<svg version="1.1" id="Capa_1" xmlns="http://www.w3.org/2000/svg" xmlns:xlink="http://www.w3.org/1999/xlink" x="0px" y="0px"
	 width="612px" height="80px" viewBox="0 0 612 80" enable-background="new 0 0 612 80" xml:space="preserve">
<g id="XMLID_88_">
	<path id="XMLID_95_" fill="#B7B1A8" d="M232.883,108.231H-36.52V52.89h194.834c25.66,0,46.242,10.977,57.821,29.111
		L232.883,108.231z"/>
	<path id="XMLID_65_" fill="#B7B1A8" d="M498.743,131.142H229.341V75.8h194.834c25.66,0,46.243,10.977,57.822,29.113
		L498.743,131.142z"/>
	<path id="XMLID_90_" fill="#174146" d="M293.036,70.8h-85.812c-11.077,0-21.293,5.975-26.723,15.627l-15.224,27.064h169.703
		l-15.224-27.064C314.328,76.774,304.112,70.8,293.036,70.8z"/>
	<path id="XMLID_89_" fill="#FF8608" d="M-36.809,68.868V25.374h67.086c11.077,0,21.292,6.375,26.723,16.029l15.224,27.465H-36.809z
		"/>
	<path id="XMLID_96_" fill="#51B591" d="M229.34,115.491H-36.52v-55.34h195.987c21.518,0,41.549,10.975,53.127,29.111
		L229.34,115.491z"/>
</g>
</svg>
