<?xml version="1.0" encoding="utf-8"?>
<!-- Generator: Adobe Illustrator 16.0.3, SVG Export Plug-In . SVG Version: 6.00 Build 0)  -->
<!DOCTYPE svg PUBLIC "-//W3C//DTD SVG 1.1//EN" "http://www.w3.org/Graphics/SVG/1.1/DTD/svg11.dtd">
<svg version="1.1" id="Artwork" xmlns="http://www.w3.org/2000/svg" xmlns:xlink="http://www.w3.org/1999/xlink" x="0px" y="0px"
	 width="3508px" height="2000px" viewBox="0 0 3508 2000" enable-background="new 0 0 3508 2000" xml:space="preserve">
<g>
	<rect fill="#D5F3F7" width="3508" height="2000"/>
	<path fill="#F3FEFF" d="M3508,825.98c0,0-232.753-54.374-372.008,81.788c-139.254,136.161-113.486,449.391-509.731,530.717
		s-520.598,163.119-602.824,349.27C1941.21,1973.903,1759.224,2000,1759.224,2000H3508V825.98z"/>
	<path fill="#F3FEFF" d="M334.039,980.754C459.081,858.49,435.942,577.23,791.745,504.205
		c355.803-73.025,467.464-146.471,541.298-313.621C1406.86,23.47,1570.216,0.01,1570.288,0H0v1054.194
		C0,1054.194,208.997,1103.019,334.039,980.754z"/>
	<g>
		<path opacity="0.11" d="M740.915,655.77c-0.677,1.045-0.73,12.017-0.73,12.017s116.414-1.509,217.813,13.886
			c0,0-7.838-97.093,9.504-190.866l-210.921-16.023L740.915,655.77z"/>
		<g>
			
				<rect x="750.857" y="480.771" transform="matrix(-0.998 -0.0625 0.0625 -0.998 1661.4459 1190.4294)" fill="#175874" width="197" height="176.875"/>
			<path fill="#FFFFFF" d="M747.621,464.625L735.36,660.271l215.732,13.521l12.262-195.646L747.621,464.625z M942.131,663.634
				l-196.614-12.322l11.063-176.528l196.614,12.322L942.131,663.634z"/>
		</g>
		<path opacity="0.5" fill="#75CBEC" d="M949.985,538.327l0.02-0.312l-7.863-0.493l1.593-25.428l7.863,0.493l0.02-0.312
			l-7.863-0.493l1.578-25.17l-0.312-0.02l-1.578,25.17l-25.627-1.606l1.577-25.17l-0.312-0.02l-1.578,25.17l-25.428-1.594
			l1.578-25.17l-0.312-0.02l-1.577,25.17l-25.428-1.593l1.577-25.17l-0.312-0.02l-1.578,25.17l-25.427-1.593l1.578-25.17
			l-0.312-0.02l-1.578,25.17l-25.427-1.594l1.578-25.17l-0.312-0.02l-1.578,25.17l-25.428-1.594l1.577-25.17l-0.312-0.02
			l-1.577,25.17l-25.74-1.613l1.578-25.17l-0.312-0.02l-1.578,25.17l-7.751-0.486l-0.02,0.312l7.751,0.486l-1.593,25.428
			l-7.751-0.486l-0.02,0.312l7.751,0.485l-1.594,25.428l-7.751-0.486l-0.02,0.312l7.751,0.486l-1.594,25.427l-7.751-0.486
			l-0.02,0.312l7.751,0.486l-1.646,26.259l-7.751-0.486l-0.02,0.312l7.751,0.486l-1.542,24.597l-7.751-0.486l-0.02,0.312
			l7.751,0.486l-1.401,22.349l0.312,0.02l1.4-22.349l25.74,1.613l-1.401,22.349l0.312,0.02l1.401-22.349l25.428,1.594l-1.401,22.349
			l0.312,0.02l1.401-22.349l25.428,1.594l-1.401,22.349l0.312,0.02l1.4-22.349l25.428,1.594l-1.401,22.349l0.312,0.02l1.4-22.349
			l25.428,1.593l-1.401,22.349l0.312,0.02l1.4-22.349l25.428,1.593l-1.4,22.349l0.312,0.02l1.401-22.349l25.627,1.606l-1.4,22.349
			l0.312,0.02l1.401-22.349l7.863,0.493l0.02-0.312l-7.863-0.493l1.542-24.597l7.863,0.493l0.02-0.312l-7.863-0.493l1.646-26.259
			l7.863,0.493l0.02-0.312l-7.863-0.493l1.594-25.428l7.863,0.493l0.02-0.312l-7.863-0.493l1.594-25.428L949.985,538.327z
			 M943.423,512.075l-1.594,25.428l-25.627-1.606l1.594-25.428L943.423,512.075z M917.484,510.45l-1.594,25.427l-25.428-1.593
			l1.594-25.428L917.484,510.45z M837.351,557.108l25.428,1.594l-1.594,25.427l-25.427-1.593L837.351,557.108z M835.446,582.517
			l-25.428-1.594l1.594-25.428l25.428,1.594L835.446,582.517z M863.09,558.722l25.428,1.593l-1.594,25.428l-25.427-1.594
			L863.09,558.722z M863.11,558.41l1.593-25.427l25.428,1.593l-1.594,25.428L863.11,558.41z M862.798,558.39l-25.428-1.594
			l1.594-25.427l25.428,1.593L862.798,558.39z M837.059,556.777l-25.428-1.594l1.594-25.428l25.428,1.594L837.059,556.777z
			 M811.32,555.164l-25.428-1.594l1.594-25.428l25.428,1.594L811.32,555.164z M811.3,555.476l-1.594,25.428l-25.428-1.594
			l1.594-25.428L811.3,555.476z M809.687,581.215l-1.646,26.259l-25.428-1.594l1.646-26.259L809.687,581.215z M809.999,581.234
			l25.427,1.594l-1.646,26.259l-25.428-1.594L809.999,581.234z M835.738,582.848l25.427,1.594L859.52,610.7l-25.428-1.594
			L835.738,582.848z M861.478,584.461l25.428,1.593l-1.646,26.259l-25.428-1.593L861.478,584.461z M887.217,586.074l25.428,1.594
			l-1.646,26.259l-25.428-1.593L887.217,586.074z M887.236,585.762l1.593-25.428l25.428,1.594l-1.594,25.428L887.236,585.762z
			 M888.85,560.023l1.593-25.428l25.428,1.594l-1.593,25.428L888.85,560.023z M891.744,508.836l-1.593,25.428l-25.428-1.594
			l1.594-25.428L891.744,508.836z M866.005,507.223l-1.593,25.428l-25.428-1.594l1.594-25.428L866.005,507.223z M840.266,505.61
			l-1.593,25.428l-25.428-1.593l1.594-25.428L840.266,505.61z M814.526,503.997l-1.594,25.428l-25.428-1.594l1.594-25.428
			L814.526,503.997z M763.047,500.771l25.739,1.613l-1.593,25.428l-25.74-1.613L763.047,500.771z M761.434,526.51l25.74,1.613
			l-1.594,25.428l-25.74-1.613L761.434,526.51z M759.821,552.249l25.739,1.613l-1.594,25.428l-25.739-1.613L759.821,552.249z
			 M758.208,577.989l25.739,1.613l-1.646,26.259l-25.74-1.613L758.208,577.989z M755.001,629.156l1.542-24.597l25.74,1.613
			l-1.542,24.597L755.001,629.156z M781.052,630.789l1.542-24.597l25.428,1.594l-1.542,24.597L781.052,630.789z M806.792,632.402
			l1.542-24.597l25.428,1.593l-1.542,24.597L806.792,632.402z M832.531,634.015l1.542-24.597l25.428,1.594l-1.542,24.597
			L832.531,634.015z M858.271,635.628l1.542-24.597l25.428,1.594l-1.542,24.597L858.271,635.628z M884.01,637.241l1.542-24.597
			l25.428,1.594l-1.542,24.597L884.01,637.241z M935.377,640.46l-25.627-1.606l1.542-24.597l25.627,1.606L935.377,640.46z
			 M936.938,615.552l-25.627-1.606l1.646-26.259l25.628,1.606L936.938,615.552z M938.604,588.981l-25.628-1.606l1.594-25.428
			l25.628,1.606L938.604,588.981z M940.217,563.242l-25.628-1.606l1.594-25.428l25.627,1.606L940.217,563.242z"/>
		<g opacity="0.94">
			<defs>
				
					<rect id="SVGID_1_" x="750.857" y="480.771" transform="matrix(-0.998 -0.0625 0.0625 -0.998 1661.4459 1190.4294)" opacity="0.94" width="197" height="176.875"/>
			</defs>
			<clipPath id="SVGID_2_">
				<use xlink:href="#SVGID_1_"  overflow="visible"/>
			</clipPath>
			<path opacity="0.37" clip-path="url(#SVGID_2_)" fill="#54ADCC" d="M948.484,393.261c1.887-2.235,3.01-5.13,2.946-8.278
				c-0.699-33.516-3.319-72.151-3.431-73.796c-0.472-6.834-6.42-12.026-13.287-11.571c-1.368,0.094-2.683,0.417-3.914,0.927
				c-5-4.065-17.553-12.02-40.918-14.047c0.036-0.271,0.076-0.54,0.093-0.816l0.087-1.394c0.22-0.219,0.434-0.443,0.643-0.672
				c16.817-4.541,29.038-19.298,30.14-36.885l0.653-10.418c1.409-22.484-15.737-41.924-38.222-43.333l-21.268-1.333
				c-22.485-1.409-41.924,15.737-43.333,38.221l-0.653,10.418c-1.103,17.587,9.181,33.754,25.299,40.36
				c0.179,0.253,0.363,0.502,0.554,0.747l-0.087,1.395c-0.021,0.321-0.018,0.639-0.012,0.955c-22.88-0.369-35.67,6.219-40.432,9.355
				c-1.379-0.962-2.97-1.666-4.725-2.011c-6.735-1.308-13.286,3.099-14.619,9.865c-0.79,4.037-7.849,40.375-12.61,72.752
				c-0.458,3.114,0.296,6.125,1.889,8.579c-1.667,1.973-2.75,4.469-2.923,7.239c-0.053,0.847-0.479,8.643,0.881,21.411
				c1.767,16.592,5.629,33.811,11.479,51.177c1.624,4.821,5.953,8.141,11.029,8.459c1.613,0.101,3.212-0.111,4.753-0.629l0.002,0
				c3.154-1.062,5.705-3.289,7.184-6.271c1.479-2.981,1.708-6.36,0.646-9.513c-12.342-36.639-11.115-62.875-11.104-63.076
				c0.173-2.773-0.59-5.386-2-7.553c1.459-1.72,2.472-3.843,2.819-6.2c0.054-0.363,0.107-0.728,0.162-1.092
				c0.761,0.814,1.628,1.538,2.605,2.135c6.38,3.907,13.499,7.06,21.448,9.483c-7.096,3.621-12.161,10.79-12.694,19.3
				c-0.407,6.496,1.905,12.544,5.951,17.036c-2.095,2.372-3.208,5.395-3.121,8.574l1.952,71.132c0.058,2.11,0.634,4.079,1.599,5.795
				c-1.512,1.848-2.513,4.145-2.754,6.688l-8.46,89.087c-0.139,1.461-0.009,2.904,0.346,4.286
				c-4.453,1.151-10.574,2.727-18.046,4.646l-0.554,0.143c-6.654,1.707-10.679,8.509-8.972,15.164
				c1.346,5.248,5.883,9.001,11.288,9.34c1.301,0.082,2.604-0.042,3.872-0.367c0.226-0.058,23.283-5.973,26.839-6.939
				c6.628-1.805,10.554-8.665,8.75-15.294c-0.243-0.895-0.585-1.735-1-2.523c1.243-1.735,2.066-3.808,2.284-6.097l8.46-89.087
				c0.245-2.577-0.311-5.103-1.563-7.307c1.83-2.236,2.905-5.107,2.82-8.216l-1.578-57.493c2.655,1.762,5.789,2.876,9.191,3.089
				l22.132,1.387c3.402,0.213,6.651-0.5,9.505-1.917l-8.744,56.847c-0.473,3.074,0.235,6.056,1.772,8.504
				c-1.518,2.031-2.385,4.467-2.463,7.054l-2.729,89.447c-0.07,2.297,0.487,4.457,1.503,6.333c-0.513,0.738-0.957,1.531-1.308,2.381
				c-2.617,6.352,0.422,13.648,6.775,16.267c3.405,1.402,25.543,10.149,25.76,10.235c1.219,0.481,2.496,0.766,3.796,0.848
				c5.404,0.339,10.374-2.818,12.367-7.859c2.523-6.389-0.621-13.641-7.009-16.165l-0.624-0.247
				c-7.201-2.847-13.014-5.15-17.232-6.826c0.524-1.326,0.833-2.741,0.878-4.208l2.729-89.447c0.076-2.501-0.586-4.913-1.891-6.987
				c1.168-1.581,1.983-3.459,2.304-5.542l10.818-70.332c0.442-2.876-0.119-5.752-1.582-8.224c4.977-3.961,8.332-9.925,8.76-16.759
				c0.524-8.372-3.464-16.003-9.866-20.513c8.533-1.401,16.275-3.689,23.333-6.878c0.96-0.434,1.839-0.989,2.643-1.628
				c0.007,0.309,0.014,0.618,0.02,0.925l0,0.003c0.05,2.38,0.789,4.61,2.021,6.497c-1.668,1.969-2.75,4.456-2.923,7.214
				c-0.005,0.065-0.488,6.648-3.082,17.517c-2.364,9.905-7.027,25.529-15.812,43.711c-1.449,2.998-1.644,6.379-0.548,9.522
				c1.095,3.143,3.349,5.67,6.349,7.119c1.464,0.707,3.024,1.116,4.636,1.217c5.078,0.318,9.789-2.437,11.999-7.016
				c7.973-16.5,13.955-33.102,17.779-49.343c2.943-12.498,3.493-20.287,3.546-21.134
				C950.654,398.038,949.892,395.427,948.484,393.261z M862.148,258.55c-0.109-0.308-0.16-0.642-0.138-0.987l0.002-0.042
				l0.197-3.135c0.048-0.029,0.1-0.054,0.149-0.084l-0.205,3.271C862.133,257.901,862.138,258.226,862.148,258.55z M875.043,258.337
				l-0.002,0.043c-0.021,0.341-0.112,0.662-0.255,0.951c0.052-0.33,0.094-0.663,0.115-1.003l0.203-3.228
				c0.044,0.036,0.093,0.066,0.137,0.102L875.043,258.337z M890.387,240.413c-0.112,1.79-1.719,3.208-3.51,3.095
				c-1.79-0.112-3.208-1.719-3.095-3.509l0.575-9.168c0.112-1.79,1.719-3.208,3.509-3.096s3.208,1.719,3.095,3.51L890.387,240.413z
				 M856.207,229.066l-0.575,9.168c-0.112,1.79-1.719,3.208-3.509,3.095c-1.79-0.112-3.208-1.719-3.096-3.509l0.575-9.168
				c0.112-1.79,1.719-3.208,3.509-3.096C854.902,225.669,856.319,227.276,856.207,229.066z M799.25,356.861
				c0.015-0.091,0.03-0.181,0.044-0.271c0.063,0.046,0.119,0.097,0.182,0.142C799.4,356.772,799.327,356.819,799.25,356.861z"/>
			<g clip-path="url(#SVGID_2_)">
				<path fill="#83DCFF" d="M848.689,274.197c0.759,1.656,1.893,3.109,3.291,4.261l-0.302,4.823
					c-0.125,1.996,1.405,3.731,3.401,3.856s3.731-1.405,3.856-3.401l0.161-2.565l4.317,0.271l-0.161,2.565
					c-0.125,1.996,1.405,3.73,3.401,3.855l0,0c1.996,0.125,3.731-1.405,3.856-3.401l0.161-2.565l4.317,0.271l-0.161,2.565
					c-0.125,1.996,1.405,3.731,3.401,3.856s3.731-1.405,3.856-3.401l0.302-4.823c1.531-0.968,2.837-2.269,3.797-3.816
					c14.426-2.747,25.813-15.022,26.771-30.313l0.653-10.417c1.133-18.087-12.738-33.813-30.825-34.947l-21.268-1.333
					c-18.087-1.134-33.813,12.738-34.947,30.825l-0.653,10.418C824.954,256.069,834.719,269.67,848.689,274.197z M876.465,230.336
					c0.386-6.157,5.739-10.878,11.896-10.493c6.156,0.386,10.878,5.739,10.492,11.896l-0.575,9.168
					c-0.386,6.156-5.739,10.878-11.896,10.492c-6.156-0.386-10.878-5.739-10.492-11.896L876.465,230.336z M870.275,254.386
					c0.086-1.374,1.28-2.428,2.654-2.342c1.374,0.086,2.428,1.281,2.341,2.655l-0.228,3.638l-0.002,0.043
					c-0.086,1.374-1.281,2.427-2.654,2.341c-1.374-0.086-2.428-1.281-2.341-2.654l0.002-0.043L870.275,254.386z M864.895,251.541
					L864.895,251.541c1.374,0.086,2.428,1.281,2.342,2.655l-0.228,3.638l-0.003,0.043c-0.086,1.374-1.28,2.427-2.654,2.341l0,0
					c-1.374-0.086-2.428-1.281-2.341-2.655l0.002-0.042l0.228-3.639C862.327,252.508,863.521,251.455,864.895,251.541z
					 M841.711,228.158c0.386-6.157,5.738-10.878,11.895-10.492c6.157,0.386,10.878,5.739,10.493,11.895l-0.575,9.168
					c-0.386,6.157-5.738,10.878-11.895,10.492s-10.878-5.739-10.492-11.896L841.711,228.158z"/>
				<path fill="#83DCFF" d="M902.494,413.102c0.529-8.443-5.946-15.785-14.39-16.314l-23.625-1.48l0.564-9.005
					c0.822,0.061,1.656,0.134,2.467,0.185c21.562,1.351,38.968-1.109,53.087-7.487c2.292-1.035,3.31-3.732,2.274-6.023
					c-1.035-2.292-3.732-3.311-6.023-2.274c-13.065,5.902-30.301,8.077-51.236,6.515l0.76-12.118
					c0.822,0.062,1.656,0.134,2.467,0.185c21.562,1.352,38.968-1.109,53.087-7.487c2.292-1.036,3.31-3.732,2.274-6.023
					c-1.035-2.292-3.733-3.31-6.023-2.274c-13.065,5.902-30.301,8.077-51.236,6.515l0.759-12.119
					c0.822,0.062,1.656,0.134,2.467,0.185c21.562,1.352,38.968-1.108,53.087-7.487c2.292-1.035,3.31-3.732,2.274-6.023
					c-1.035-2.292-3.732-3.31-6.023-2.274c-13.065,5.902-30.301,8.078-51.236,6.515l0.763-12.176
					c1.315,0.108,2.626,0.212,3.911,0.293c21.562,1.352,38.968-1.109,53.088-7.487c1.334-0.603,2.298-1.813,2.588-3.248
					c0.29-1.436-0.129-2.924-1.126-3.998c-0.484-0.523-12.248-12.81-43.411-14.158c-2.511-0.109-4.636,1.838-4.746,4.351
					c-0.109,2.512,1.766,4.633,4.351,4.746c15.131,0.656,24.938,4.085,30.65,6.986c-12.176,3.729-27.178,4.876-44.736,3.423
					l0.742-11.843c0.157-2.509-1.75-4.671-4.259-4.828s-4.671,1.75-4.829,4.259l-0.746,11.898
					c-16.436-0.942-30.307-3.881-41.335-8.838c6.021-2.166,16.163-4.346,31.296-3.099c2.532,0.245,4.704-1.659,4.909-4.166
					c0.205-2.506-1.66-4.704-4.166-4.909c-31.094-2.553-44.293,8.168-44.839,8.626c-1.123,0.941-1.724,2.365-1.616,3.826
					c0.108,1.46,0.914,2.781,2.163,3.545c13.214,8.092,30.174,12.706,51.737,14.057c0.42,0.026,0.857,0.041,1.28,0.064
					l-0.759,12.119c-20.424-1.167-36.836-5.456-48.832-12.802c-2.143-1.311-4.947-0.64-6.26,1.504
					c-1.313,2.145-0.64,4.947,1.505,6.26c13.214,8.092,30.173,12.705,51.737,14.057c0.419,0.026,0.857,0.041,1.28,0.064
					l-0.76,12.121c-20.424-1.16-36.836-5.457-48.832-12.803c-2.143-1.311-4.947-0.638-6.26,1.504
					c-1.313,2.144-0.64,4.947,1.504,6.26c13.214,8.092,30.174,12.705,51.737,14.057c0.42,0.026,0.857,0.041,1.28,0.064l-0.759,12.12
					c-20.424-1.161-36.836-5.457-48.832-12.803c-2.143-1.312-4.948-0.639-6.26,1.504c-1.313,2.145-0.64,4.947,1.504,6.26
					c13.214,8.092,30.174,12.705,51.738,14.057c0.419,0.026,0.856,0.041,1.28,0.065l-0.563,8.991l-23.625-1.481
					c-8.443-0.529-15.784,5.946-16.313,14.39c-0.529,8.443,5.946,15.784,14.39,16.313l5.641,0.354l-0.316,5.045
					c-0.375,5.981,4.212,11.182,10.193,11.557l22.132,1.387c5.981,0.375,11.182-4.212,11.557-10.193l0.316-5.045l6.814,0.427
					C894.624,428.02,901.965,421.545,902.494,413.102z M846.552,410.161c-0.255,4.065-3.79,7.183-7.855,6.928l-2.484-0.156
					l-4.956-0.311c-4.065-0.255-7.183-3.789-6.928-7.854l0,0c0.255-4.065,3.79-7.183,7.855-6.928l7.44,0.466
					c3.692,0.231,6.574,3.175,6.886,6.758C846.541,409.427,846.575,409.789,846.552,410.161L846.552,410.161z M879.443,419.643
					c-4.065-0.255-7.183-3.79-6.928-7.854v0c0.014-0.225,0.074-0.434,0.108-0.652c0.576-3.734,3.906-6.516,7.747-6.275l7.44,0.466
					c4.065,0.254,7.183,3.789,6.928,7.854l0,0c-0.255,4.065-3.789,7.183-7.854,6.928l-7.318-0.458L879.443,419.643z"/>
				<path fill="#83DCFF" d="M934.421,385.337c0.05,2.384,1.923,4.302,4.262,4.449c0.127,0.008,0.255,0.011,0.385,0.008
					c2.513-0.052,4.509-2.132,4.457-4.646c-0.707-33.898-3.388-73.024-3.414-73.415c-0.173-2.509-2.351-4.394-4.855-4.228
					c-2.508,0.173-4.402,2.347-4.229,4.855C931.054,312.749,933.72,351.663,934.421,385.337z"/>
				<path fill="#83DCFF" d="M938.331,395.486c-2.509-0.157-4.671,1.75-4.829,4.259c-0.017,0.269-1.894,27.361-19.664,64.14
					c-1.094,2.264-0.146,4.986,2.118,6.08c0.548,0.264,1.122,0.41,1.694,0.446c1.791,0.112,3.557-0.847,4.385-2.564
					c18.541-38.372,20.48-66.359,20.554-67.532C942.747,397.805,940.84,395.643,938.331,395.486z"/>
				<path fill="#83DCFF" d="M783.053,380.017c0.128,0.019,0.256,0.032,0.383,0.04c2.338,0.146,4.437-1.522,4.784-3.881
					c4.9-33.324,12.404-71.601,12.479-71.982c0.485-2.467-1.123-4.861-3.589-5.346c-2.455-0.477-4.859,1.122-5.345,3.589
					c-0.075,0.385-7.621,38.87-12.554,72.415C778.846,377.338,780.565,379.651,783.053,380.017z"/>
				<path fill="#83DCFF" d="M795.974,462.444c2.382-0.802,3.664-3.384,2.861-5.767c-12.935-38.398-11.53-65.601-11.502-66.093
					c0,0,0-0.001,0-0.001c0.157-2.509-1.75-4.67-4.259-4.828c-2.509-0.157-4.671,1.75-4.828,4.259
					c-0.074,1.173-1.644,29.184,11.961,69.57c0.608,1.807,2.24,2.979,4.031,3.092C794.809,462.711,795.397,462.639,795.974,462.444z
					"/>
				<path fill="#83DCFF" d="M822.722,427.869c-2.514,0.069-4.495,2.163-4.426,4.675l1.952,71.132
					c0.065,2.374,1.936,4.273,4.261,4.418c0.137,0.009,0.276,0.011,0.415,0.008c2.514-0.07,4.495-2.163,4.426-4.676l-1.952-71.132
					C827.33,429.783,825.232,427.8,822.722,427.869z"/>
				<path fill="#83DCFF" d="M824.023,513.022c-2.491-0.226-4.725,1.597-4.962,4.101l-8.46,89.087
					c-0.237,2.503,1.599,4.726,4.102,4.963c0.049,0.006,0.099,0.009,0.148,0.012c2.441,0.153,4.581-1.66,4.814-4.113l8.46-89.087
					C828.363,515.482,826.527,513.26,824.023,513.022z"/>
				<path fill="#83DCFF" d="M813.036,615.32c-3.34,0.909-26.363,6.816-26.596,6.875c-2.436,0.625-3.903,3.105-3.278,5.541
					c0.503,1.96,2.208,3.293,4.124,3.414c0.465,0.029,0.942-0.014,1.417-0.135c0.951-0.244,23.319-5.983,26.724-6.909
					c2.426-0.66,3.857-3.162,3.197-5.587C817.964,616.092,815.464,614.66,813.036,615.32z"/>
				<path fill="#83DCFF" d="M879.383,511.517c0.139,0.021,0.275,0.035,0.413,0.043c2.325,0.146,4.418-1.505,4.779-3.852
					l10.818-70.332c0.382-2.485-1.322-4.809-3.808-5.191c-2.488-0.392-4.809,1.322-5.191,3.808l-10.818,70.332
					C875.193,508.81,876.897,511.134,879.383,511.517z"/>
				<path fill="#83DCFF" d="M876.506,615.049c0.049,0.003,0.099,0.005,0.149,0.006c2.513,0.078,4.613-1.898,4.689-4.411
					l2.729-89.447c0.077-2.514-1.915-4.612-4.412-4.688c-2.513-0.077-4.613,1.898-4.689,4.412l-2.729,89.446
					C872.168,612.831,874.064,614.896,876.506,615.049z"/>
				<path fill="#83DCFF" d="M903.319,629.521c-0.224-0.088-22.329-8.824-25.529-10.143c-2.324-0.959-4.986,0.151-5.943,2.476
					c-0.958,2.325,0.15,4.985,2.475,5.943c3.262,1.343,24.739,9.832,25.652,10.192c0.457,0.18,0.924,0.282,1.389,0.311
					c1.916,0.12,3.774-0.99,4.518-2.872C906.804,633.088,905.658,630.445,903.319,629.521z"/>
			</g>
		</g>
	</g>
	<g>
		<path opacity="0.11" d="M492.641,493.073c-0.775,0.975-1.886,11.891-1.886,11.891s116.016,9.732,215.456,34.84
			c0,0,1.567-97.396,27.879-189.058l-208.391-36.303L492.641,493.073z"/>
		<g>
			
				<rect x="510.43" y="328.943" transform="matrix(-0.9873 -0.1586 0.1586 -0.9873 1143.9705 926.038)" fill="#175874" width="197" height="176.875"/>
			<path fill="#FFFFFF" d="M517.762,303.468l-31.084,193.55l213.42,34.275l31.084-193.55L517.762,303.468z M692.16,520.318
				L497.652,489.08l28.047-174.637l194.507,31.238L692.16,520.318z"/>
		</g>
		<path opacity="0.5" fill="#75CBEC" d="M712.068,396.354l0.05-0.309l-7.779-1.249l4.04-25.156l7.778,1.25l0.05-0.309l-7.779-1.249
			l3.999-24.9l-0.309-0.05l-3.999,24.9l-25.353-4.072l4-24.9l-0.309-0.049l-3.999,24.9l-25.155-4.04l3.999-24.9l-0.309-0.05
			l-3.999,24.901l-25.155-4.04l3.999-24.9l-0.308-0.049l-3.999,24.9l-25.155-4.04l3.999-24.901l-0.308-0.049l-3.999,24.9
			l-25.155-4.04l3.999-24.901l-0.309-0.049l-3.999,24.9l-25.155-4.04l3.999-24.9l-0.309-0.05l-3.999,24.901l-25.463-4.09l3.999-24.9
			l-0.309-0.049l-3.999,24.9l-7.668-1.231l-0.049,0.308l7.668,1.231l-4.04,25.156l-7.668-1.232l-0.049,0.309l7.668,1.231
			l-4.04,25.155l-7.668-1.231l-0.049,0.308l7.668,1.231l-4.04,25.155l-7.668-1.231l-0.049,0.308l7.668,1.232l-4.172,25.977
			l-7.668-1.231l-0.05,0.309l7.668,1.231l-3.908,24.333l-7.668-1.231l-0.049,0.309l7.668,1.231l-3.551,22.11l0.309,0.049
			l3.551-22.11l25.463,4.09l-3.551,22.109l0.309,0.049l3.551-22.109l25.155,4.04l-3.551,22.109l0.309,0.05l3.551-22.109l25.155,4.04
			l-3.551,22.109l0.308,0.05l3.551-22.109l25.155,4.04l-3.551,22.109l0.308,0.049l3.551-22.109l25.155,4.04l-3.551,22.109
			l0.309,0.05l3.551-22.11l25.155,4.04l-3.551,22.109l0.309,0.05l3.551-22.109l25.353,4.071l-3.551,22.11l0.309,0.049l3.551-22.109
			l7.779,1.249l0.049-0.308l-7.778-1.25l3.908-24.333l7.779,1.249l0.049-0.308l-7.779-1.25l4.172-25.978l7.779,1.25l0.049-0.309
			l-7.779-1.249l4.04-25.155l7.779,1.25l0.05-0.309l-7.779-1.249l4.04-25.155L712.068,396.354z M708.071,369.591l-4.04,25.155
			l-25.353-4.072l4.04-25.155L708.071,369.591z M682.409,365.47l-4.04,25.155l-25.155-4.04l4.04-25.155L682.409,365.47z
			 M598.148,404.178l25.155,4.04l-4.04,25.155l-25.155-4.04L598.148,404.178z M593.8,429.284l-25.155-4.04l4.04-25.155l25.155,4.04
			L593.8,429.284z M623.611,408.268l25.155,4.04l-4.04,25.155l-25.155-4.04L623.611,408.268z M623.661,407.959l4.04-25.155
			l25.155,4.04L648.816,412L623.661,407.959z M623.353,407.91l-25.155-4.04l4.04-25.155l25.155,4.04L623.353,407.91z
			 M597.889,403.82l-25.155-4.04l4.04-25.155l25.155,4.04L597.889,403.82z M572.426,399.731l-25.156-4.04l4.04-25.155l25.156,4.04
			L572.426,399.731z M572.376,400.039l-4.04,25.155l-25.155-4.04l4.04-25.155L572.376,400.039z M568.287,425.503l-4.172,25.978
			l-25.156-4.04l4.172-25.978L568.287,425.503z M568.595,425.552l25.155,4.04l-4.172,25.978l-25.155-4.04L568.595,425.552z
			 M594.059,429.642l25.155,4.04l-4.172,25.978l-25.155-4.04L594.059,429.642z M619.522,433.731l25.155,4.04l-4.172,25.978
			l-25.155-4.04L619.522,433.731z M644.985,437.821l25.155,4.04l-4.172,25.978l-25.155-4.04L644.985,437.821z M645.035,437.512
			l4.04-25.155l25.155,4.04l-4.04,25.155L645.035,437.512z M649.125,412.049l4.04-25.155l25.155,4.04l-4.04,25.155L649.125,412.049z
			 M656.946,361.38l-4.04,25.156l-25.155-4.04l4.04-25.155L656.946,361.38z M631.482,357.291l-4.04,25.155l-25.155-4.04l4.04-25.155
			L631.482,357.291z M606.019,353.202l-4.04,25.155l-25.155-4.04l4.04-25.155L606.019,353.202z M580.555,349.112l-4.04,25.155
			l-25.156-4.04l4.04-25.155L580.555,349.112z M529.627,340.933l25.464,4.089l-4.04,25.155l-25.464-4.089L529.627,340.933z
			 M525.538,366.397l25.464,4.089l-4.04,25.155l-25.464-4.09L525.538,366.397z M521.449,391.86l25.463,4.089l-4.04,25.155
			l-25.463-4.089L521.449,391.86z M517.359,417.324l25.464,4.089l-4.172,25.978l-25.464-4.089L517.359,417.324z M509.229,467.943
			l3.908-24.333l25.463,4.09l-3.908,24.333L509.229,467.943z M535.002,472.082l3.908-24.333l25.156,4.04l-3.908,24.333
			L535.002,472.082z M560.466,476.171l3.908-24.333l25.155,4.04l-3.908,24.333L560.466,476.171z M585.929,480.261l3.908-24.333
			l25.155,4.04l-3.908,24.333L585.929,480.261z M611.393,484.351l3.908-24.333l25.155,4.04l-3.908,24.333L611.393,484.351z
			 M636.856,488.44l3.908-24.333l25.155,4.04l-3.908,24.333L636.856,488.44z M687.673,496.601l-25.353-4.072l3.908-24.333
			l25.354,4.071L687.673,496.601z M691.63,471.959l-25.353-4.072l4.172-25.978l25.353,4.072L691.63,471.959z M695.852,445.674
			l-25.353-4.072l4.04-25.155l25.354,4.072L695.852,445.674z M699.941,420.21l-25.353-4.072l4.04-25.155l25.353,4.072
			L699.941,420.21z"/>
		<g opacity="0.94">
			<defs>
				
					<rect id="SVGID_3_" x="510.43" y="328.943" transform="matrix(-0.9873 -0.1586 0.1586 -0.9873 1143.9705 926.038)" opacity="0.94" width="197" height="176.875"/>
			</defs>
			<clipPath id="SVGID_4_">
				<use xlink:href="#SVGID_3_"  overflow="visible"/>
			</clipPath>
			<path opacity="0.37" clip-path="url(#SVGID_4_)" fill="#54ADCC" d="M697.815,447.143c2.23-2.176,3.719-5.13,3.975-8.475
				c2.705-35.609,3.898-76.844,3.948-78.6c0.202-7.295-5.571-13.411-12.899-13.634c-1.46-0.041-2.887,0.167-4.245,0.58
				c-4.883-4.824-17.376-14.549-41.942-19.101c0.066-0.283,0.135-0.564,0.182-0.855l0.236-1.469c0.255-0.21,0.506-0.425,0.751-0.647
				c18.298-3.086,32.773-17.477,35.75-36.012l1.763-10.979c3.806-23.696-12.376-46.07-36.072-49.876l-22.414-3.6
				c-23.696-3.806-46.07,12.376-49.876,36.072l-1.763,10.979c-2.977,18.535,6.264,36.734,22.676,45.395
				c0.164,0.287,0.333,0.57,0.511,0.849l-0.236,1.47c-0.054,0.339-0.084,0.676-0.11,1.012c-24.222-2.743-38.461,2.927-43.833,5.762
				c-1.363-1.162-2.978-2.072-4.803-2.618c-7.007-2.08-14.406,1.919-16.515,8.958c-1.252,4.199-12.473,42.003-20.85,75.844
				c-0.805,3.254-0.316,6.525,1.121,9.29c-1.971,1.921-3.375,4.456-3.843,7.375c-0.144,0.893-1.397,9.115-1.268,22.793
				c0.167,17.774,2.493,36.428,6.91,55.443c1.227,5.279,5.475,9.244,10.825,10.104c1.7,0.273,3.417,0.213,5.104-0.179l0.002,0
				c3.454-0.802,6.387-2.901,8.262-5.91c1.875-3.009,2.465-6.569,1.663-10.021c-9.319-40.118-5.321-67.81-5.29-68.022
				c0.469-2.922-0.071-5.771-1.345-8.214c1.725-1.674,3.016-3.82,3.627-6.284c0.094-0.38,0.189-0.761,0.284-1.142
				c0.723,0.941,1.569,1.798,2.542,2.532c6.363,4.798,13.587,8.873,21.767,12.26c-7.896,3.11-14.004,10.19-15.444,19.159
				c-1.099,6.846,0.73,13.497,4.559,18.675c-2.465,2.3-3.956,5.39-4.19,8.771l-5.243,75.623c-0.155,2.243,0.253,4.39,1.1,6.309
				c-1.793,1.804-3.09,4.136-3.607,6.808l-18.129,93.591c-0.298,1.535-0.308,3.079-0.073,4.58
				c-4.839,0.763-11.492,1.805-19.613,3.071l-0.602,0.095c-7.23,1.126-12.197,7.925-11.072,15.156
				c0.888,5.703,5.313,10.149,11.009,11.064c1.371,0.22,2.766,0.223,4.144,0.008c0.246-0.038,25.301-3.939,29.171-4.598
				c7.213-1.232,12.081-8.103,10.851-15.317c-0.167-0.974-0.443-1.9-0.802-2.778c1.496-1.712,2.582-3.826,3.048-6.23l18.128-93.591
				c0.524-2.707,0.195-5.442-0.906-7.908c2.17-2.184,3.605-5.117,3.835-8.422l4.237-61.123c2.634,2.141,5.842,3.645,9.428,4.22
				l23.325,3.746c3.585,0.576,7.104,0.153,10.276-1.056l-15.115,59.376c-0.817,3.21-0.373,6.446,1.005,9.199
				c-1.818,1.997-2.988,4.492-3.337,7.226l-12.089,94.562c-0.311,2.429,0.059,4.775,0.942,6.869c-0.62,0.73-1.172,1.525-1.631,2.391
				c-3.428,6.466-0.956,14.515,5.511,17.944c3.466,1.837,26.041,13.388,26.262,13.5c1.244,0.636,2.568,1.069,3.938,1.29
				c5.695,0.915,11.29-1.922,13.92-7.062c3.332-6.515,0.744-14.527-5.77-17.86l-0.636-0.326c-7.343-3.759-13.27-6.799-17.57-9.01
				c0.692-1.352,1.166-2.821,1.364-4.372l12.089-94.562c0.338-2.645-0.116-5.27-1.287-7.603c1.401-1.556,2.458-3.464,3.012-5.639
				l18.701-73.462c0.765-3.004,0.466-6.111-0.832-8.882c5.685-3.688,9.854-9.667,11.011-16.869
				c1.417-8.823-2.027-17.325-8.352-22.765c9.191-0.608,17.636-2.238,25.448-4.894c1.063-0.361,2.052-0.859,2.97-1.455
				c-0.025,0.328-0.049,0.656-0.074,0.983v0.003c-0.191,2.528,0.362,4.969,1.475,7.097c-1.971,1.916-3.374,4.442-3.841,7.348
				c-0.012,0.069-1.2,7-5.068,18.256c-3.525,10.26-10.076,26.347-21.259,44.722c-1.845,3.029-2.398,6.595-1.56,10.041
				c0.839,3.445,2.968,6.356,6,8.201c1.479,0.9,3.091,1.494,4.79,1.767c5.353,0.859,10.63-1.578,13.444-6.205
				c10.15-16.676,18.199-33.665,23.924-50.492c4.405-12.949,5.79-21.151,5.933-22.044
				C699.625,452.431,699.086,449.584,697.815,447.143z M620.121,295.43c-0.084-0.337-0.104-0.697-0.045-1.06l0.007-0.045
				l0.531-3.303c0.055-0.026,0.112-0.047,0.167-0.074l-0.554,3.447C620.171,294.741,620.144,295.086,620.121,295.43z
				 M633.815,296.53l-0.007,0.045c-0.058,0.359-0.187,0.691-0.369,0.982c0.089-0.344,0.167-0.693,0.225-1.052l0.546-3.401
				c0.043,0.042,0.091,0.08,0.135,0.122L633.815,296.53z M651.927,279.102c-0.303,1.887-2.152,3.225-4.039,2.922
				c-1.887-0.303-3.225-2.153-2.922-4.04l1.552-9.662c0.303-1.887,2.153-3.225,4.039-2.922c1.887,0.303,3.225,2.153,2.921,4.04
				L651.927,279.102z M616.852,263.558l-1.552,9.662c-0.303,1.886-2.153,3.224-4.039,2.921c-1.887-0.303-3.225-2.153-2.921-4.04
				l1.552-9.662c0.303-1.886,2.152-3.224,4.039-2.921C615.817,259.821,617.155,261.671,616.852,263.558z M543.322,393.206
				c0.025-0.094,0.051-0.188,0.076-0.283c0.062,0.055,0.116,0.115,0.178,0.169C543.49,393.126,543.408,393.168,543.322,393.206z"/>
			<g clip-path="url(#SVGID_4_)">
				<path fill="#83DCFF" d="M604.241,310.638c0.634,1.833,1.687,3.491,3.051,4.855l-0.816,5.083c-0.338,2.103,1.106,4.1,3.209,4.438
					s4.1-1.106,4.438-3.21l0.434-2.703l4.55,0.73l-0.435,2.704c-0.337,2.103,1.107,4.1,3.21,4.438l0,0
					c2.103,0.337,4.1-1.107,4.438-3.21l0.434-2.703l4.55,0.73l-0.434,2.704c-0.338,2.103,1.106,4.1,3.209,4.438
					c2.103,0.337,4.1-1.107,4.438-3.21l0.816-5.083c1.723-0.869,3.242-2.114,4.418-3.657c15.579-1.429,28.915-13.274,31.502-29.389
					l1.763-10.979c3.062-19.062-10.03-37.163-29.091-40.224l-22.415-3.6c-19.062-3.062-37.162,10.03-40.224,29.092l-1.763,10.979
					C580.938,288.977,589.894,304.402,604.241,310.638z M638.201,266.986c1.042-6.488,7.203-10.944,13.691-9.902
					s10.944,7.203,9.902,13.691l-1.552,9.662c-1.042,6.488-7.203,10.944-13.691,9.902s-10.944-7.203-9.902-13.691L638.201,266.986z
					 M629.166,291.851c0.232-1.448,1.607-2.442,3.055-2.21c1.448,0.232,2.442,1.607,2.21,3.055l-0.616,3.834l-0.007,0.045
					c-0.232,1.448-1.607,2.442-3.055,2.21c-1.448-0.232-2.442-1.607-2.21-3.055l0.007-0.045L629.166,291.851z M623.754,288.281
					L623.754,288.281c1.448,0.232,2.442,1.607,2.21,3.055l-0.616,3.834l-0.007,0.045c-0.232,1.448-1.607,2.442-3.055,2.21h0
					c-1.448-0.232-2.442-1.607-2.209-3.055l0.007-0.045l0.616-3.834C620.932,289.042,622.306,288.048,623.754,288.281z
					 M601.575,261.104c1.042-6.488,7.203-10.944,13.691-9.902s10.944,7.203,9.902,13.691l-1.552,9.662
					c-1.042,6.488-7.203,10.944-13.691,9.902s-10.944-7.203-9.902-13.691L601.575,261.104z"/>
				<path fill="#83DCFF" d="M647.012,463.452c1.429-8.898-4.682-17.348-13.58-18.777l-24.897-3.999l1.524-9.49
					c0.866,0.15,1.742,0.312,2.597,0.449c22.724,3.649,41.432,2.831,57.059-2.481c2.536-0.862,3.893-3.617,3.031-6.153
					c-0.861-2.537-3.617-3.894-6.153-3.031c-14.46,4.915-32.959,5.449-54.996,1.641l2.051-12.771
					c0.865,0.149,1.742,0.312,2.596,0.449c22.724,3.649,41.433,2.83,57.06-2.481c2.536-0.862,3.893-3.617,3.031-6.153
					c-0.861-2.536-3.618-3.893-6.153-3.031c-14.46,4.915-32.959,5.449-54.996,1.641l2.051-12.771c0.865,0.15,1.742,0.313,2.596,0.45
					c22.724,3.649,41.433,2.83,57.06-2.481c2.536-0.862,3.893-3.617,3.031-6.152c-0.861-2.537-3.618-3.893-6.153-3.031
					c-14.46,4.915-32.959,5.45-54.996,1.641l2.061-12.832c1.383,0.249,2.763,0.495,4.117,0.712
					c22.723,3.649,41.432,2.831,57.06-2.481c1.477-0.502,2.624-1.685,3.078-3.178c0.455-1.493,0.164-3.114-0.783-4.354
					c-0.46-0.604-11.67-14.842-44.574-19.475c-2.652-0.374-5.105,1.473-5.479,4.125c-0.374,2.652,1.396,5.094,4.125,5.479
					c15.977,2.251,26.023,6.895,31.781,10.559c-13.293,2.703-29.319,2.376-47.786-0.969l2.004-12.481
					c0.424-2.644-1.375-5.133-4.02-5.557c-2.645-0.425-5.133,1.375-5.558,4.019l-2.014,12.539
					c-17.33-2.688-31.736-7.23-42.92-13.621c6.607-1.677,17.585-2.946,33.502-0.069c2.66,0.52,5.159-1.275,5.634-3.912
					c0.476-2.636-1.276-5.159-3.912-5.634c-32.707-5.904-47.805,4.108-48.43,4.538c-1.288,0.882-2.072,2.33-2.107,3.891
					c-0.035,1.56,0.683,3.042,1.929,3.982c13.179,9.938,30.688,16.573,53.413,20.223c0.442,0.071,0.904,0.131,1.351,0.2
					l-2.051,12.772c-21.536-3.337-38.498-9.572-50.461-18.594c-2.138-1.61-5.18-1.187-6.792,0.952
					c-1.613,2.139-1.187,5.179,0.952,6.792c13.18,9.938,30.688,16.573,53.413,20.223c0.442,0.071,0.904,0.131,1.351,0.2
					l-2.051,12.773c-21.537-3.33-38.497-9.573-50.46-18.595c-2.138-1.61-5.181-1.186-6.792,0.952
					c-1.613,2.139-1.187,5.18,0.952,6.792c13.18,9.938,30.688,16.573,53.413,20.223c0.442,0.071,0.904,0.131,1.351,0.2
					l-2.052,12.773c-21.537-3.331-38.497-9.573-50.46-18.595c-2.137-1.611-5.18-1.186-6.792,0.952
					c-1.613,2.139-1.187,5.18,0.952,6.792c13.18,9.938,30.688,16.573,53.413,20.223c0.442,0.071,0.904,0.131,1.351,0.2l-1.522,9.475
					l-24.898-3.999c-8.898-1.429-17.348,4.682-18.777,13.58c-1.429,8.898,4.682,17.348,13.581,18.777l5.945,0.955l-0.854,5.316
					c-1.012,6.304,3.317,12.29,9.62,13.302l23.325,3.746c6.304,1.012,12.29-3.317,13.302-9.62l0.854-5.317l7.181,1.153
					C637.133,478.461,645.583,472.35,647.012,463.452z M587.998,454.583c-0.688,4.284-4.756,7.227-9.041,6.539l-2.618-0.421
					l-5.222-0.838c-4.285-0.688-7.227-4.756-6.539-9.041v0c0.688-4.284,4.756-7.227,9.041-6.539l7.841,1.259
					c3.892,0.625,6.644,4.043,6.606,7.874C588.062,453.803,588.061,454.19,587.998,454.583L587.998,454.583z M621.898,468.018
					c-4.284-0.688-7.227-4.756-6.539-9.041l0,0c0.038-0.237,0.124-0.453,0.182-0.681c0.994-3.9,4.812-6.507,8.859-5.857l7.841,1.259
					c4.284,0.688,7.227,4.756,6.538,9.041l0,0c-0.688,4.285-4.756,7.227-9.041,6.539l-7.712-1.238L621.898,468.018z"/>
				<path fill="#83DCFF" d="M683.719,437.295c-0.192,2.533,1.597,4.759,4.062,5.155c0.134,0.021,0.27,0.038,0.407,0.049
					c2.67,0.202,5-1.798,5.203-4.469c2.736-36.016,3.916-77.777,3.927-78.195c0.074-2.677-2.041-4.9-4.713-4.982
					c-2.677-0.074-4.909,2.036-4.983,4.714C687.61,359.982,686.437,401.517,683.719,437.295z"/>
				<path fill="#83DCFF" d="M686.821,448.458c-2.645-0.425-5.133,1.375-5.558,4.02c-0.045,0.284-4.821,28.817-27.444,65.987
					c-1.393,2.288-0.667,5.271,1.621,6.664c0.554,0.337,1.147,0.551,1.751,0.647c1.887,0.303,3.858-0.533,4.913-2.268
					c23.604-38.78,28.538-68.256,28.736-69.492C691.265,451.371,689.465,448.882,686.821,448.458z"/>
				<path fill="#83DCFF" d="M523.768,416.093c0.134,0.033,0.268,0.06,0.402,0.082c2.463,0.396,4.86-1.158,5.472-3.624
					c8.621-34.83,20.512-74.644,20.631-75.042c0.768-2.566-0.69-5.269-3.256-6.037c-2.554-0.758-5.267,0.69-6.036,3.256
					c-0.12,0.4-12.076,40.431-20.755,75.492C519.582,412.82,521.168,415.449,523.768,416.093z"/>
				<path fill="#83DCFF" d="M528.994,504.821c2.608-0.606,4.232-3.212,3.626-5.821c-9.767-42.044-5.481-70.743-5.401-71.262
					c0,0,0-0.001,0-0.001c0.425-2.645-1.375-5.132-4.02-5.557c-2.644-0.425-5.132,1.375-5.557,4.02
					c-0.199,1.236-4.743,30.774,5.531,74.996c0.459,1.978,2.068,3.389,3.956,3.692C527.731,504.984,528.363,504.967,528.994,504.821
					z"/>
				<path fill="#83DCFF" d="M560.911,470.91c-2.672-0.185-4.989,1.831-5.174,4.502l-5.243,75.623
					c-0.175,2.524,1.613,4.729,4.063,5.124c0.145,0.023,0.291,0.04,0.439,0.051c2.672,0.185,4.988-1.831,5.173-4.503l5.243-75.623
					C565.599,473.412,563.579,471.095,560.911,470.91z"/>
				<path fill="#83DCFF" d="M553.536,561.333c-2.618-0.496-5.173,1.208-5.683,3.838l-18.129,93.591
					c-0.509,2.63,1.209,5.175,3.839,5.684c0.052,0.011,0.104,0.02,0.156,0.028c2.573,0.413,5.027-1.289,5.527-3.866l18.129-93.591
					C557.885,564.387,556.167,561.842,553.536,561.333z"/>
				<path fill="#83DCFF" d="M531.37,668.671c-3.635,0.621-28.654,4.517-28.907,4.557c-2.647,0.413-4.458,2.891-4.045,5.538
					c0.332,2.13,2.002,3.719,4.021,4.043c0.49,0.079,1,0.082,1.517,0.002c1.033-0.16,25.341-3.947,29.046-4.579
					c2.64-0.45,4.415-2.956,3.964-5.596S534.013,668.221,531.37,668.671z"/>
				<path fill="#83DCFF" d="M612.39,565.427c0.145,0.036,0.289,0.065,0.433,0.088c2.45,0.394,4.839-1.141,5.463-3.593l18.7-73.462
					c0.661-2.595-0.907-5.235-3.503-5.896c-2.598-0.671-5.235,0.908-5.896,3.504l-18.701,73.461
					C608.226,562.126,609.794,564.766,612.39,565.427z"/>
				<path fill="#83DCFF" d="M598.696,674.909c0.052,0.008,0.104,0.016,0.157,0.022c2.657,0.34,5.086-1.539,5.426-4.196
					l12.089-94.562c0.339-2.657-1.557-5.086-4.196-5.424c-2.657-0.34-5.086,1.539-5.426,4.196l-12.089,94.561
					C594.325,672.111,596.123,674.496,598.696,674.909z"/>
				<path fill="#83DCFF" d="M625.639,693.009c-0.228-0.116-22.768-11.651-26.026-13.378c-2.366-1.256-5.303-0.353-6.557,2.014
					c-1.255,2.367-0.354,5.302,2.013,6.556c3.32,1.76,25.22,12.968,26.151,13.443c0.465,0.238,0.951,0.394,1.44,0.473
					c2.02,0.324,4.104-0.662,5.086-2.581C628.967,697.151,628.023,694.23,625.639,693.009z"/>
			</g>
		</g>
	</g>
	<g>
		<path opacity="0.11" d="M279.459,695.284c-0.394,1.182,2.303,11.817,2.303,11.817s112.325-30.618,214.348-41.11
			c0,0-31.907-92.035-38.603-187.163l-208.211,37.315L279.459,695.284z"/>
		<g>
			
				<rect x="264.264" y="495.885" transform="matrix(-0.9819 0.1894 -0.1894 -0.9819 829.6409 1089.353)" fill="#175874" width="196.999" height="176.874"/>
			<path fill="#FFFFFF" d="M238.077,508.553l37.131,192.481l212.242-40.943L450.319,467.61L238.077,508.553z M476.232,652.501
				l-193.433,37.315l-33.503-173.672l193.433-37.315L476.232,652.501z"/>
		</g>
		<path opacity="0.5" fill="#75CBEC" d="M452.451,529.221l-0.06-0.307l-7.736,1.493l-4.826-25.017l7.736-1.492l-0.06-0.307
			l-7.735,1.492l-4.777-24.763l-0.307,0.059l4.777,24.763l-25.213,4.864l-4.777-24.763l-0.307,0.06l4.777,24.763l-25.017,4.826
			l-4.777-24.763l-0.307,0.059l4.777,24.763l-25.016,4.826l-4.777-24.763l-0.307,0.059l4.777,24.763l-25.016,4.826l-4.777-24.763
			l-0.307,0.059l4.777,24.763l-25.017,4.826l-4.777-24.763l-0.307,0.059l4.777,24.763l-25.017,4.826l-4.777-24.763l-0.307,0.059
			l4.777,24.763l-25.323,4.885l-4.777-24.763l-0.307,0.059l4.777,24.763l-7.626,1.471l0.059,0.307l7.626-1.471l4.826,25.016
			l-7.626,1.471l0.059,0.307l7.626-1.471l4.826,25.017l-7.625,1.471l0.059,0.307l7.626-1.471l4.826,25.016l-7.626,1.471l0.059,0.307
			l7.626-1.471l4.983,25.834l-7.626,1.471l0.059,0.307l7.626-1.471l4.668,24.199l-7.626,1.471l0.059,0.307l7.626-1.471l4.242,21.987
			l0.307-0.059l-4.242-21.988l25.323-4.885l4.241,21.987l0.307-0.059l-4.242-21.987l25.017-4.826l4.242,21.987l0.307-0.059
			l-4.242-21.987l25.016-4.826l4.242,21.987l0.307-0.059l-4.242-21.987l25.017-4.826l4.241,21.988l0.307-0.059l-4.241-21.988
			l25.016-4.826l4.242,21.987l0.307-0.059l-4.242-21.987l25.017-4.826l4.242,21.987l0.307-0.059l-4.242-21.987l25.213-4.864
			l4.241,21.987l0.307-0.059l-4.242-21.987l7.736-1.492l-0.059-0.307l-7.736,1.492l-4.668-24.199l7.736-1.493l-0.059-0.307
			l-7.736,1.492l-4.984-25.834l7.736-1.492l-0.059-0.307l-7.736,1.492l-4.826-25.016l7.736-1.492l-0.059-0.307l-7.736,1.492
			l-4.826-25.016L452.451,529.221z M439.523,505.45l4.826,25.017l-25.213,4.864l-4.826-25.017L439.523,505.45z M414.003,510.373
			l4.826,25.017l-25.017,4.826l-4.826-25.016L414.003,510.373z M348.111,575.615l25.016-4.826l4.826,25.017l-25.017,4.826
			L348.111,575.615z M352.63,600.69l-25.016,4.826l-4.826-25.016l25.017-4.826L352.63,600.69z M373.434,570.729l25.017-4.826
			l4.826,25.016l-25.017,4.826L373.434,570.729z M373.375,570.423l-4.826-25.016l25.016-4.826l4.826,25.016L373.375,570.423z
			 M373.068,570.482l-25.016,4.826l-4.826-25.017l25.017-4.826L373.068,570.482z M347.745,575.367l-25.017,4.826l-4.826-25.016
			l25.016-4.826L347.745,575.367z M322.422,580.252l-25.017,4.826l-4.826-25.017l25.017-4.826L322.422,580.252z M322.481,580.559
			l4.826,25.017l-25.017,4.826l-4.826-25.016L322.481,580.559z M327.366,605.882l4.983,25.834l-25.017,4.826l-4.983-25.834
			L327.366,605.882z M327.673,605.823l25.016-4.826l4.984,25.834l-25.017,4.826L327.673,605.823z M352.996,600.938l25.017-4.826
			l4.983,25.834l-25.016,4.826L352.996,600.938z M378.319,596.053l25.016-4.826l4.983,25.834l-25.016,4.826L378.319,596.053z
			 M403.642,591.167l25.017-4.826l4.983,25.834l-25.017,4.826L403.642,591.167z M403.583,590.861l-4.826-25.016l25.016-4.826
			l4.826,25.017L403.583,590.861z M398.697,565.538l-4.826-25.017l25.017-4.826l4.826,25.016L398.697,565.538z M388.68,515.258
			l4.826,25.017l-25.017,4.826l-4.826-25.017L388.68,515.258z M363.357,520.143l4.826,25.017l-25.017,4.826l-4.826-25.016
			L363.357,520.143z M338.034,525.028l4.826,25.016l-25.016,4.826l-4.826-25.017L338.034,525.028z M312.711,529.913l4.826,25.017
			l-25.017,4.826l-4.826-25.016L312.711,529.913z M262.064,539.683l25.323-4.885l4.826,25.017l-25.323,4.885L262.064,539.683z
			 M266.95,565.006l25.323-4.885l4.826,25.016l-25.323,4.885L266.95,565.006z M271.834,590.329l25.323-4.885l4.826,25.016
			l-25.323,4.885L271.834,590.329z M276.72,615.652l25.323-4.885l4.983,25.834l-25.323,4.885L276.72,615.652z M286.431,665.991
			l-4.668-24.199l25.323-4.885l4.668,24.199L286.431,665.991z M312.061,661.047l-4.668-24.199l25.017-4.826l4.668,24.199
			L312.061,661.047z M337.384,656.162l-4.668-24.199l25.016-4.826l4.668,24.199L337.384,656.162z M362.707,651.277l-4.668-24.199
			l25.016-4.826l4.668,24.199L362.707,651.277z M388.03,646.392l-4.668-24.199l25.017-4.826l4.668,24.199L388.03,646.392z
			 M413.353,641.507l-4.668-24.199l25.016-4.826l4.668,24.199L413.353,641.507z M463.889,631.758l-25.213,4.864l-4.668-24.199
			l25.213-4.864L463.889,631.758z M459.162,607.253l-25.213,4.864l-4.983-25.834l25.213-4.863L459.162,607.253z M454.119,581.112
			l-25.213,4.864l-4.826-25.017l25.213-4.864L454.119,581.112z M449.234,555.789l-25.213,4.864l-4.826-25.016l25.213-4.864
			L449.234,555.789z"/>
		<g opacity="0.94">
			<defs>
				
					<rect id="SVGID_5_" x="264.264" y="495.885" transform="matrix(-0.9819 0.1894 -0.1894 -0.9819 829.6409 1089.353)" opacity="0.94" width="196.999" height="176.874"/>
			</defs>
			<clipPath id="SVGID_6_">
				<use xlink:href="#SVGID_5_"  overflow="visible"/>
			</clipPath>
			<path opacity="0.37" clip-path="url(#SVGID_6_)" fill="#54ADCC" d="M480.685,706.66c1.33-2.769,1.711-6.007,0.817-9.19
				c-9.524-33.888-22.349-72.474-22.896-74.116c-2.277-6.824-9.689-10.537-16.55-8.269c-1.366,0.456-2.617,1.129-3.735,1.971
				c-6.151-2.817-21.005-7.603-45.291-3.518c-0.034-0.285-0.065-0.569-0.12-0.854l-0.278-1.44c0.166-0.281,0.325-0.565,0.477-0.853
				c15.901-9.04,24.444-27.255,20.938-45.423l-2.076-10.762c-4.481-23.228-27.024-38.48-50.251-33.999l-21.971,4.239
				c-23.228,4.48-38.48,27.023-33.999,50.251l2.076,10.762c3.505,18.168,18.21,31.899,36.333,34.375
				c0.249,0.21,0.501,0.415,0.76,0.614l0.278,1.44c0.064,0.333,0.15,0.654,0.24,0.975c-23.356,5.643-34.626,15.703-38.643,20.143
				c-1.654-0.616-3.457-0.913-5.332-0.801c-7.19,0.441-12.691,6.644-12.267,13.873c0.259,4.312,2.64,43.108,6.314,77.274
				c0.354,3.286,1.912,6.149,4.177,8.225c-1.176,2.444-1.62,5.265-1.068,8.127c0.169,0.875,1.786,8.913,6.526,21.535
				c6.16,16.402,14.614,32.89,25.128,49.005c2.919,4.474,8.193,6.71,13.437,5.699c1.667-0.321,3.237-0.957,4.667-1.889l0.002-0.001
				c2.927-1.909,4.935-4.844,5.654-8.264c0.72-3.419,0.064-6.915-1.846-9.841c-22.182-34.001-27.834-60.994-27.877-61.201
				c-0.552-2.865-2.016-5.32-4.02-7.152c1.032-2.132,1.502-4.556,1.235-7.044c-0.041-0.383-0.082-0.768-0.123-1.153
				c0.988,0.627,2.06,1.135,3.21,1.486c7.514,2.294,15.579,3.626,24.297,4c-6.261,5.547-9.525,14.167-7.829,22.958
				c1.294,6.711,5.235,12.251,10.53,15.753c-1.506,2.962-1.843,6.328-0.917,9.537l20.692,71.797c0.613,2.129,1.717,3.979,3.149,5.47
				c-1.051,2.276-1.464,4.874-1.041,7.522l14.829,92.789c0.243,1.522,0.755,2.955,1.479,4.265
				c-4.224,2.342-10.032,5.554-17.124,9.47l-0.525,0.29c-6.315,3.486-8.618,11.459-5.132,17.775
				c2.749,4.981,8.347,7.604,13.932,6.526c1.344-0.259,2.636-0.728,3.84-1.392c0.214-0.119,22.098-12.195,25.458-14.113
				c6.264-3.578,8.45-11.583,4.873-17.849c-0.482-0.845-1.051-1.609-1.681-2.302c0.807-2.091,1.099-4.415,0.718-6.799
				l-14.829-92.789c-0.429-2.683-1.658-5.105-3.511-7.017c1.272-2.755,1.61-5.956,0.706-9.094l-16.725-58.031
				c3.163,1.093,6.641,1.401,10.156,0.724l22.864-4.411c3.515-0.678,6.629-2.258,9.158-4.449l6.062,60.088
				c0.328,3.249,1.832,6.095,4.038,8.179c-1.008,2.463-1.249,5.168-0.649,7.818l20.75,91.648c0.533,2.354,1.667,4.402,3.193,6.042
				c-0.327,0.885-0.57,1.808-0.703,2.765c-0.99,7.145,4.018,13.764,11.166,14.755c3.83,0.53,28.636,3.6,28.879,3.629
				c1.366,0.169,2.739,0.123,4.082-0.136c5.583-1.077,9.805-5.594,10.505-11.242c0.885-7.159-4.219-13.704-11.376-14.589
				l-0.699-0.087c-8.069-1-14.584-1.813-19.313-2.407c0.184-1.486,0.126-3.006-0.214-4.509l-20.75-91.647
				c-0.58-2.563-1.887-4.84-3.759-6.605c0.771-1.914,1.106-4.038,0.884-6.239l-7.5-74.343c-0.307-3.041-1.633-5.816-3.771-7.944
				c4.018-5.336,5.859-12.281,4.498-19.34c-1.668-8.649-7.73-15.358-15.424-18.258c8.305-3.668,15.575-8.031,21.911-13.128
				c0.862-0.693,1.61-1.489,2.258-2.351c0.088,0.312,0.176,0.625,0.264,0.936l0.001,0.002c0.677,2.406,2.014,4.479,3.763,6.074
				c-1.178,2.439-1.624,5.253-1.074,8.102c0.013,0.068,1.253,6.887,1.474,18.617c0.202,10.692-0.43,27.801-4.578,48.594
				c-0.685,3.428,0.007,6.917,1.947,9.824c1.94,2.907,4.896,4.883,8.326,5.567c1.674,0.334,3.367,0.339,5.033,0.018
				c5.247-1.012,9.311-5.051,10.353-10.288c3.765-18.87,5.48-37.32,5.097-54.837c-0.295-13.479-1.784-21.542-1.953-22.417
				C484.147,710.945,482.686,708.492,480.685,706.66z M357.489,592.422c-0.192-0.284-0.331-0.61-0.4-0.967l-0.008-0.044
				l-0.625-3.238c0.042-0.043,0.088-0.082,0.13-0.125l0.651,3.378C357.303,591.767,357.394,592.096,357.489,592.422z
				 M370.542,588.814l0.008,0.044c0.068,0.353,0.061,0.703-0.009,1.034c-0.034-0.349-0.079-0.698-0.147-1.05l-0.643-3.334
				c0.055,0.024,0.112,0.043,0.167,0.067L370.542,588.814z M381.426,566.557c0.356,1.85-0.904,3.713-2.754,4.07
				c-1.849,0.357-3.713-0.904-4.069-2.753l-1.827-9.471c-0.357-1.849,0.904-3.713,2.753-4.069c1.849-0.357,3.713,0.904,4.07,2.753
				L381.426,566.557z M343.696,564.012l1.827,9.471c0.356,1.849-0.904,3.713-2.754,4.07c-1.849,0.356-3.713-0.904-4.07-2.753
				l-1.827-9.471c-0.357-1.85,0.904-3.713,2.753-4.07C341.475,560.902,343.339,562.163,343.696,564.012z M319.404,708.904
				c-0.008-0.096-0.017-0.191-0.025-0.287c0.075,0.03,0.146,0.067,0.222,0.096C319.533,708.774,319.471,708.841,319.404,708.904z"/>
			<g clip-path="url(#SVGID_6_)">
				<path fill="#83DCFF" d="M347.922,611.868c1.207,1.483,2.742,2.663,4.466,3.466l0.961,4.982c0.398,2.062,2.41,3.423,4.472,3.025
					c2.062-0.397,3.423-2.41,3.025-4.471l-0.512-2.65l4.46-0.86l0.511,2.65c0.398,2.062,2.41,3.423,4.471,3.025h0
					c2.062-0.398,3.423-2.41,3.025-4.472l-0.511-2.65l4.46-0.86l0.511,2.65c0.397,2.062,2.41,3.423,4.471,3.025
					s3.423-2.41,3.025-4.471l-0.961-4.983c1.302-1.386,2.288-3.052,2.856-4.878c13.943-6.586,22.29-22.06,19.243-37.855
					l-2.076-10.762c-3.604-18.686-21.841-31.024-40.527-27.42l-21.971,4.239c-18.686,3.604-31.024,21.841-27.42,40.527l2.076,10.762
					C319.026,599.683,332.53,610.941,347.922,611.868z M364.623,559.975c-1.227-6.36,2.973-12.568,9.333-13.794
					c6.36-1.227,12.567,2.973,13.794,9.333l1.827,9.471c1.227,6.36-2.973,12.568-9.333,13.794
					c-6.36,1.227-12.567-2.973-13.794-9.333L364.623,559.975z M364.656,586.051c-0.274-1.419,0.663-2.805,2.083-3.078
					c1.419-0.274,2.804,0.663,3.078,2.083l0.725,3.759l0.008,0.044c0.274,1.419-0.663,2.805-2.083,3.078
					c-1.419,0.274-2.804-0.663-3.078-2.083l-0.009-0.044L364.656,586.051z M358.438,584.574L358.438,584.574
					c1.419-0.274,2.805,0.663,3.078,2.083l0.725,3.759l0.009,0.044c0.274,1.419-0.664,2.805-2.083,3.079h0
					c-1.419,0.273-2.804-0.664-3.078-2.083l-0.008-0.044l-0.725-3.759C356.082,586.233,357.02,584.848,358.438,584.574z
					 M328.72,566.901c-1.227-6.36,2.973-12.567,9.333-13.794c6.36-1.227,12.567,2.973,13.794,9.333l1.827,9.472
					c1.227,6.36-2.973,12.567-9.333,13.794c-6.36,1.227-12.568-2.973-13.794-9.333L328.72,566.901z"/>
				<path fill="#83DCFF" d="M439.15,738.924c-1.683-8.723-10.196-14.482-18.918-12.8l-24.406,4.708l-1.795-9.303
					c0.852-0.154,1.719-0.299,2.556-0.461c22.275-4.297,39.322-11.375,51.999-21.573c2.057-1.655,2.383-4.664,0.728-6.722
					c-1.655-2.058-4.665-2.384-6.721-0.728c-11.73,9.436-28.679,16.179-50.372,20.098l-2.416-12.519
					c0.852-0.154,1.719-0.299,2.556-0.461c22.275-4.297,39.322-11.375,51.999-21.573c2.057-1.655,2.383-4.664,0.728-6.722
					c-1.654-2.057-4.665-2.383-6.721-0.728c-11.73,9.436-28.679,16.18-50.372,20.098l-2.415-12.519
					c0.852-0.154,1.719-0.299,2.556-0.461c22.274-4.297,39.322-11.375,51.998-21.573c2.057-1.655,2.383-4.665,0.728-6.722
					c-1.654-2.058-4.665-2.383-6.721-0.728c-11.729,9.436-28.679,16.181-50.372,20.098l-2.426-12.578
					c1.365-0.237,2.725-0.475,4.053-0.731c22.274-4.297,39.322-11.375,51.999-21.573c1.198-0.964,1.86-2.447,1.777-3.982
					c-0.083-1.536-0.9-2.939-2.196-3.768c-0.63-0.404-15.82-9.801-47.854-2.976c-2.582,0.55-4.23,3.088-3.68,5.671
					c0.549,2.582,3.014,4.245,5.671,3.68c15.555-3.312,26.427-2.406,32.996-0.958c-11.396,6.993-26.346,12.104-44.577,15.246
					l-2.36-12.234c-0.5-2.592-3.007-4.289-5.6-3.789c-2.592,0.5-4.288,3.007-3.788,5.599l2.371,12.291
					c-16.956,3.365-31.83,4.026-44.345,1.886c5.551-3.785,15.288-8.668,31-11.381c2.638-0.417,4.346-2.924,3.895-5.525
					c-0.45-2.602-2.925-4.346-5.525-3.896c-32.281,5.582-42.879,19.953-43.313,20.563c-0.894,1.251-1.131,2.857-0.637,4.314
					c0.494,1.456,1.66,2.586,3.131,3.036c15.562,4.75,34.016,4.98,56.292,0.683c0.434-0.083,0.881-0.184,1.318-0.271l2.415,12.52
					c-21.069,4.185-38.881,4.142-53.007-0.171c-2.523-0.77-5.198,0.651-5.968,3.176c-0.771,2.525,0.651,5.197,3.176,5.968
					c15.562,4.751,34.015,4.98,56.292,0.683c0.434-0.083,0.882-0.184,1.319-0.271l2.416,12.521
					c-21.068,4.193-38.882,4.141-53.008-0.172c-2.523-0.77-5.198,0.652-5.968,3.176c-0.771,2.525,0.65,5.197,3.176,5.968
					c15.562,4.75,34.015,4.98,56.292,0.683c0.434-0.083,0.882-0.184,1.319-0.271l2.415,12.521
					c-21.068,4.191-38.881,4.141-53.008-0.172c-2.523-0.77-5.197,0.651-5.968,3.176c-0.771,2.525,0.651,5.197,3.176,5.968
					c15.562,4.75,34.015,4.98,56.292,0.683c0.434-0.084,0.882-0.184,1.319-0.271l1.792,9.288l-24.406,4.708
					c-8.722,1.683-14.482,10.196-12.799,18.918c1.683,8.723,10.196,14.482,18.918,12.8l5.828-1.125l1.005,5.212
					c1.192,6.179,7.223,10.259,13.402,9.067l22.864-4.411c6.179-1.192,10.259-7.223,9.067-13.402l-1.005-5.211l7.039-1.358
					C435.073,756.16,440.833,747.646,439.15,738.924z M381.508,750.648c0.81,4.2-1.963,8.298-6.163,9.108l-2.567,0.496l-5.119,0.987
					c-4.2,0.81-8.299-1.963-9.109-6.163v0c-0.81-4.199,1.963-8.298,6.163-9.108l7.686-1.483c3.815-0.736,7.518,1.499,8.777,5.06
					C381.304,749.904,381.434,750.263,381.508,750.648L381.508,750.648z M417.438,751.637c-4.2,0.81-8.299-1.963-9.109-6.163l0,0
					c-0.045-0.232-0.039-0.461-0.062-0.692c-0.397-3.948,2.257-7.651,6.225-8.417l7.686-1.483c4.199-0.81,8.298,1.963,9.108,6.163
					l0,0c0.81,4.2-1.963,8.299-6.163,9.109l-7.56,1.458L417.438,751.637z"/>
				<path fill="#83DCFF" d="M464.304,702.304c0.678,2.41,3.087,3.867,5.502,3.401c0.131-0.025,0.263-0.056,0.394-0.093
					c2.541-0.714,4.022-3.354,3.309-5.896c-9.633-34.274-22.648-73.343-22.779-73.734c-0.835-2.504-3.545-3.849-6.047-3.021
					c-2.504,0.835-3.857,3.543-3.022,6.048C441.791,629.397,454.735,668.255,464.304,702.304z"/>
				<path fill="#83DCFF" d="M470.948,711.592c-2.592,0.5-4.289,3.007-3.788,5.599c0.053,0.278,5.271,28.313-3.122,70.375
					c-0.517,2.59,1.164,5.107,3.752,5.624c0.627,0.125,1.249,0.122,1.84,0.008c1.85-0.357,3.393-1.797,3.783-3.76
					c8.756-43.884,3.368-72.845,3.134-74.057C476.047,712.788,473.54,711.092,470.948,711.592z"/>
				<path fill="#83DCFF" d="M309.028,736.704c0.135-0.015,0.269-0.035,0.4-0.06c2.415-0.466,4.109-2.715,3.842-5.204
					c-3.783-35.165-6.221-76.049-6.246-76.458c-0.156-2.635-2.419-4.646-5.055-4.49c-2.621,0.161-4.645,2.418-4.489,5.054
					c0.024,0.412,2.476,41.519,6.283,76.917C304.047,735.087,306.404,736.986,309.028,736.704z"/>
				<path fill="#83DCFF" d="M343.842,817.1c2.21-1.442,2.834-4.404,1.391-6.616c-23.248-35.633-28.974-63.655-29.075-64.164v0
					c-0.5-2.592-3.007-4.288-5.599-3.788s-4.289,3.007-3.789,5.599c0.234,1.212,6.005,30.099,30.456,67.577
					c1.094,1.676,3.061,2.44,4.911,2.083C342.728,817.677,343.307,817.448,343.842,817.1z"/>
				<path fill="#83DCFF" d="M361.94,774.917c-2.537,0.731-4.001,3.38-3.27,5.917l20.692,71.798c0.69,2.396,3.092,3.834,5.494,3.371
					c0.141-0.027,0.283-0.061,0.423-0.101c2.537-0.732,4.001-3.38,3.27-5.917l-20.691-71.797
					C367.127,775.649,364.474,774.186,361.94,774.917z"/>
				<path fill="#83DCFF" d="M385.658,861.139c-2.592,0.426-4.383,2.866-3.966,5.474l14.829,92.789
					c0.417,2.607,2.868,4.383,5.475,3.966c0.052-0.007,0.103-0.017,0.154-0.026c2.521-0.486,4.22-2.892,3.812-5.447l-14.829-92.789
					C390.717,862.498,388.266,860.722,385.658,861.139z"/>
				<path fill="#83DCFF" d="M401.392,968.021c-3.156,1.802-25.007,13.862-25.228,13.984c-2.312,1.276-3.151,4.183-1.875,6.495
					c1.027,1.86,3.111,2.768,5.09,2.386c0.48-0.093,0.954-0.262,1.405-0.51c0.903-0.498,22.132-12.216,25.35-14.052
					c2.292-1.309,3.09-4.229,1.781-6.521C406.605,967.51,403.687,966.711,401.392,968.021z"/>
				<path fill="#83DCFF" d="M441.539,845.048c0.146-0.015,0.289-0.037,0.431-0.064c2.402-0.463,4.096-2.692,3.845-5.173l-7.5-74.342
					c-0.265-2.626-2.609-4.541-5.236-4.276c-2.632,0.256-4.541,2.609-4.276,5.236l7.5,74.342
					C436.568,843.399,438.912,845.313,441.539,845.048z"/>
				<path fill="#83DCFF" d="M465.843,951.054c0.051-0.01,0.102-0.021,0.153-0.033c2.576-0.582,4.19-3.143,3.607-5.718l-20.75-91.647
					c-0.583-2.575-3.16-4.184-5.718-3.605c-2.576,0.582-4.19,3.143-3.607,5.718l20.75,91.647
					C460.85,949.939,463.321,951.541,465.843,951.054z"/>
				<path fill="#83DCFF" d="M496.906,958.713c-0.25-0.031-25.019-3.098-28.619-3.596c-2.615-0.364-5.03,1.464-5.391,4.08
					c-0.363,2.615,1.463,5.028,4.079,5.391c3.669,0.508,27.734,3.488,28.757,3.614c0.511,0.063,1.014,0.043,1.494-0.049
					c1.979-0.382,3.577-1.999,3.837-4.108C501.387,961.424,499.527,959.038,496.906,958.713z"/>
			</g>
		</g>
	</g>
	<g>
		<defs>
			<rect id="SVGID_7_" width="3508" height="2000"/>
		</defs>
		<clipPath id="SVGID_8_">
			<use xlink:href="#SVGID_7_"  overflow="visible"/>
		</clipPath>
		<path opacity="0.08" clip-path="url(#SVGID_8_)" fill="#1E1E1E" d="M1545.844,1791.828l101.651-382.985l8.78-33.079h0
			l221.113-15.732l-83.692-502.021l-307.359-114.462c-9.115-9.043-16.77-15.255-21.205-18.625l0.012,10.732l-0.012-0.005v-10.728
			V623.836l35.811-48.392l-12.098-42.343l-18.357,6.244c-1.51-3.296-3.306-6.455-5.356-9.459V428.253L1420.29,347.6l-99.241-32.261
			l-99.241,32.261l-44.841,80.653v101.33c-2.208,3.078-4.129,6.295-5.747,9.629l-17.966-6.111l-12.098,42.343l35.811,48.392v102.1
			l-3.19,1.521c-1.004,0.391-22.565,8.897-46.652,26.756L848.402,858.01l0.256,0.966l-13.24,33.91H531.334l22.845-27.025
			l-22.756-2.698l-13.907,12.827l-10.569-17.375l-58.053,31.011l-0.172,3.261H312.579v752.637h744.842l11.393,42.925h0
			l27.438,103.38h69.255L1199.615,2000h62.69l16.954-208.172h41.79h41.789L1379.792,2000h62.69l34.106-208.172H1545.844z
			 M1712.233,1164.931l56.282,159.988l-101.821,11.588L1712.233,1164.931z M527.794,892.886l-7.622-12.53L527.794,892.886
			L527.794,892.886z"/>
		<g clip-path="url(#SVGID_8_)">
			<polygon fill="#1E1E1E" points="1315.837,1714.743 1337.128,1976.159 1329.932,2000 1389.121,2000 1435.856,1714.743 			"/>
			<polygon fill="#1E1E1E" points="1236.421,1714.743 1116.402,1714.743 1163.138,2000 1222.327,2000 1215.131,1976.159 			"/>
			<polygon fill="#FFFFFF" points="1420.212,684.121 1276.13,806.48 1132.047,684.121 803.482,806.48 1051.334,1740.299 
				1276.13,1740.299 1500.925,1740.299 1748.776,806.48 			"/>
			<g>
				<g>
					<g>
						<path fill="#82BBD1" d="M998.626,871.41c-3.577-19.255,9.179-37.83,28.434-41.407c19.255-3.576,37.83,9.179,41.406,28.435
							l16.84,90.667l17.292-3.212l-16.84-90.667c-5.348-28.79-33.119-47.861-61.909-42.514
							c-28.79,5.348-47.861,33.119-42.514,61.909l16.841,90.667l17.291-3.211L998.626,871.41z"/>
					</g>
					<g>
						<path fill="#F2F2F2" d="M1061.282,1088.294c-27.504-19.85-32.795-56.192-32.843-56.538l-12.932-69.687l-17.291,3.211
							l12.825,69.05c0.569,3.943,7.139,44.435,39.797,68.114c17.931,13.002,40.066,18.333,65.915,15.969l-3.226-17.369
							C1092.789,1102.636,1075.252,1098.377,1061.282,1088.294z"/>
						<path fill="#7A7A7A" d="M1163.699,1101.41L1163.699,1101.41c-0.887-4.775-5.477-7.927-10.251-7.04l-26.172,4.861
							c-4.73,0.879-9.308,1.473-13.747,1.813l3.226,17.369c4.471-0.408,9.041-1.02,13.733-1.892l26.171-4.86
							C1161.434,1110.774,1164.586,1106.186,1163.699,1101.41z"/>
					</g>
					<g>
						<path fill="#F2F2F2" d="M1087.87,1083.355c18.542-28.401,10.43-64.221,10.35-64.561l-12.955-69.683l17.291-3.211l12.825,69.05
							c0.885,3.885,9.293,44.034-12.684,77.862c-12.066,18.573-30.811,31.497-55.784,38.573l-3.227-17.369
							C1063.615,1108.055,1078.452,1097.782,1087.87,1083.355z"/>
						<path fill="#7A7A7A" d="M996.994,1132.374L996.994,1132.374c-0.887-4.775,2.265-9.365,7.04-10.252l26.172-4.86
							c4.73-0.879,9.216-1.969,13.481-3.244l3.227,17.369c-4.32,1.225-8.804,2.294-13.497,3.166l-26.172,4.86
							C1002.471,1140.301,997.881,1137.148,996.994,1132.374z"/>
					</g>
				</g>
				<path fill="#82BBD1" d="M1132.047,684.122v-9.715l-3.189,1.521c-1.118,0.435-27.691,10.912-54.876,33.155
					c-36.594,29.942-56.562,66.976-57.743,107.098l17.579,0.518c2.494-84.693,99.449-123.611,100.438-123.998L1132.047,684.122z"/>
			</g>
			<polygon fill="#C3E6ED" points="1276.13,806.48 1132.047,684.121 1276.13,1273.39 1420.212,684.121 			"/>
			<polygon fill="#EFCBBB" points="1132.047,684.121 1420.212,684.121 1276.13,806.48 			"/>
			<polygon fill="#FFFFFF" points="1748.776,806.48 1832.469,1308.502 1456.023,1335.285 1446.919,1304.877 1723.597,1273.39 
				1667.314,1113.4 			"/>
			<polygon fill="#FFFFFF" points="804.116,806.48 700.879,1070.883 490.468,845.529 445.688,856.545 706.928,1167.767 
				885.579,1113.4 			"/>
			<polygon fill="#A3C9CE" points="1238.323,852.724 1156.314,783.371 1261.007,906.564 			"/>
			<polygon fill="#4D94AA" points="1313.936,852.724 1276.13,806.48 1238.323,852.724 1261.007,906.564 1242.82,1137.16 
				1276.13,1273.39 1309.439,1137.16 1291.252,906.564 			"/>
			<polygon fill="#A3C9CE" points="1313.936,852.724 1395.944,783.371 1291.252,906.564 			"/>
			<path fill="#FAD9CA" d="M1443.925,481.572l-23.713,8.065V376.723h-288.165v112.914l-23.713-8.065l-12.098,42.343l35.811,48.392
				v111.814c0,0,107.222,63.385,144.083,63.385c36.86,0,144.082-63.385,144.082-63.385V572.307l35.812-48.392L1443.925,481.572z"/>
			<polygon fill="#39404A" points="1375.371,296.07 1276.13,263.809 1176.889,296.07 1132.047,376.723 1132.047,489.637 
				1168.823,417.05 1204.088,435.197 1276.13,435.197 1348.171,435.197 1383.436,417.05 1420.212,489.637 1420.212,376.723 			"/>
			<polygon fill="#F2F2F2" points="1276.13,1273.39 1476.313,836.445 1438.118,806.48 1486.315,806.48 1420.212,684.121 			"/>
			<polygon fill="#F2F2F2" points="1276.129,1273.39 1075.946,836.445 1114.141,806.48 1065.943,806.48 1132.047,684.121 			"/>
			<path fill="#FFFFFF" d="M1275.532,658.016h-55.549c0,0,23.779,25.893,55.549,25.893c31.77,0,55.547-25.893,55.547-25.893
				H1275.532z"/>
			<ellipse fill="#39404A" cx="1192.356" cy="512.069" rx="13.608" ry="23.062"/>
			<ellipse fill="#39404A" cx="1358.706" cy="512.069" rx="13.609" ry="23.062"/>
			<g>
				<rect x="304.433" y="878.129" fill="#175874" width="756.36" height="679.092"/>
				<path fill="#FFFFFF" d="M267.66,841.357v752.637h829.906V841.357H267.66z M1060.793,1557.222h-756.36V878.129h756.36V1557.222z"
					/>
			</g>
			<path opacity="0.5" fill="#75CBEC" d="M1060.793,1075.176v-1.199h-30.249v-97.819h30.249v-1.199h-30.249V878.13h-1.199v96.828
				h-98.588V878.13h-1.199v96.828h-97.819V878.13h-1.199v96.828h-97.818V878.13h-1.199v96.828h-97.818V878.13h-1.199v96.828h-97.818
				V878.13h-1.199v96.828h-97.82V878.13h-1.199v96.828h-99.018V878.13h-1.199v96.828h-29.819v1.199h29.819v97.819h-29.819v1.199
				h29.819v97.817h-29.818v1.199h29.818v97.818h-29.819v1.199h29.819v101.016h-29.819v1.199h29.819v94.622h-29.819v1.199h29.819
				v85.977h1.199v-85.977h99.018v85.975h1.199v-85.975h97.82v85.975h1.199v-85.975h97.818v85.975h1.199v-85.975h97.818v85.976h1.199
				v-85.976h97.818v85.976h1.199v-85.976h97.819v85.975h1.199v-85.975h98.588v85.976h1.199v-85.976h30.249v-1.199h-30.249v-94.622
				h30.249v-1.199h-30.249V1273.21h30.249v-1.199h-30.249v-97.818h30.249v-1.199h-30.249v-97.817H1060.793z M1029.346,976.157
				v97.819h-98.588v-97.819H1029.346z M929.559,976.157v97.819h-97.819v-97.819H929.559z M633.705,1174.192h97.818v97.818h-97.818
				V1174.192z M632.505,1272.011h-97.818v-97.818h97.818V1272.011z M732.722,1174.192h97.818v97.818h-97.818V1174.192z
				 M732.722,1172.993v-97.817h97.818v97.817H732.722z M731.523,1172.993h-97.818v-97.817h97.818V1172.993z M632.505,1172.993
				h-97.818v-97.817h97.818V1172.993z M533.488,1172.993h-97.82v-97.817h97.82V1172.993z M533.488,1174.192v97.818h-97.82v-97.818
				H533.488z M533.488,1273.21v101.016h-97.82V1273.21H533.488z M534.688,1273.21h97.818v101.016h-97.818V1273.21z M633.705,1273.21
				h97.818v101.016h-97.818V1273.21z M732.722,1273.21h97.818v101.016h-97.818V1273.21z M831.739,1273.21h97.819v101.016h-97.819
				V1273.21z M831.739,1272.011v-97.818h97.819v97.818H831.739z M831.739,1172.993v-97.817h97.819v97.817H831.739z M830.54,976.157
				v97.819h-97.818v-97.819H830.54z M731.523,976.157v97.819h-97.818v-97.819H731.523z M632.505,976.157v97.819h-97.818v-97.819
				H632.505z M533.488,976.157v97.819h-97.82v-97.819H533.488z M335.451,976.157h99.018v97.819h-99.018V976.157z M335.451,1075.176
				h99.018v97.817h-99.018V1075.176z M335.451,1174.192h99.018v97.818h-99.018V1174.192z M335.451,1273.21h99.018v101.016h-99.018
				V1273.21z M335.451,1470.047v-94.622h99.018v94.622H335.451z M435.668,1470.047v-94.622h97.82v94.622H435.668z M534.688,1470.047
				v-94.622h97.818v94.622H534.688z M633.705,1470.047v-94.622h97.818v94.622H633.705z M732.722,1470.047v-94.622h97.818v94.622
				H732.722z M831.739,1470.047v-94.622h97.819v94.622H831.739z M1029.346,1470.047h-98.588v-94.622h98.588V1470.047z
				 M1029.346,1374.226h-98.588V1273.21h98.588V1374.226z M1029.346,1272.011h-98.588v-97.818h98.588V1272.011z M1029.346,1172.993
				h-98.588v-97.817h98.588V1172.993z"/>
			<g opacity="0.94">
				<defs>
					<rect id="SVGID_9_" x="304.433" y="878.129" opacity="0.94" width="756.36" height="679.092"/>
				</defs>
				<clipPath id="SVGID_10_">
					<use xlink:href="#SVGID_9_"  overflow="visible"/>
				</clipPath>
				<path opacity="0.37" clip-path="url(#SVGID_10_)" fill="#54ADCC" d="M828.003,1958.503l-1.548-0.503
					c-17.871-5.803-32.298-10.497-42.769-13.916c1.069-3.291,1.603-6.765,1.488-10.325l-6.967-217.033
					c-0.195-6.069-2.164-11.809-5.639-16.633c2.589-4.006,4.278-8.679,4.738-13.77l15.523-171.968
					c0.634-7.033-1.16-13.913-5.08-19.676c11.453-10.35,18.67-25.301,18.67-41.915c0-20.355-10.818-38.231-27.006-48.18
					c20.451-4.688,38.854-11.404,55.464-20.198c2.26-1.195,4.304-2.673,6.152-4.344c0.063,0.746,0.126,1.493,0.189,2.238l0,0.006
					c0.483,5.756,2.61,11.044,5.879,15.429c-3.741,5.02-5.984,11.208-5.984,17.912c-0.001,0.159-0.171,16.176-4.804,42.889
					c-4.223,24.348-13.144,62.893-31.659,108.257c-3.054,7.479-3.012,15.698,0.119,23.145c3.13,7.444,8.971,13.223,16.455,16.277
					c3.653,1.489,7.492,2.243,11.412,2.243c12.347,0,23.336-7.387,27.993-18.812c16.803-41.169,28.77-82.282,35.568-122.195
					c5.23-30.713,5.381-49.66,5.381-51.72c0-6.735-2.242-12.943-5.981-17.975c4.23-5.7,6.511-12.881,5.877-20.495
					c-6.778-81.061-18.988-174.228-19.51-178.193c-2.18-16.479-17.372-28.149-33.933-26.004c-3.299,0.436-6.433,1.417-9.338,2.837
					c-12.725-9.085-44.333-26.444-101.225-27.808c0.047-0.66,0.101-1.318,0.101-1.99v-3.389c0.499-0.564,0.984-1.14,1.455-1.726
					c40.037-13.55,67.393-51.143,67.393-93.901v-25.328c0-54.666-44.474-99.141-99.14-99.141h-51.709
					c-54.666,0-99.14,44.475-99.14,99.141v25.328c0,42.759,27.356,80.352,67.393,93.901c0.471,0.586,0.956,1.161,1.455,1.726v3.389
					c0,0.782,0.054,1.551,0.118,2.316c-55.466,2.579-85.441,20.474-96.498,28.791c-3.484-2.121-7.445-3.584-11.748-4.152
					c-16.508-2.146-31.705,9.52-33.905,26.109c-1.299,9.896-12.88,98.968-19.497,178.1c-0.634,7.611,1.647,14.79,5.876,20.49
					c-3.739,5.031-5.98,11.238-5.98,17.974c0,2.06,0.151,21.005,5.382,51.72c6.797,39.913,18.764,81.026,35.567,122.194
					c4.665,11.429,15.652,18.813,27.994,18.813c3.922,0,7.763-0.756,11.416-2.245l0.004-0.002
					c7.478-3.051,13.317-8.83,16.447-16.275c3.13-7.444,3.172-15.663,0.119-23.137c-35.448-86.858-36.458-150.58-36.464-151.068
					c0-6.742-2.246-12.953-5.991-17.986c3.274-4.388,5.403-9.682,5.887-15.443c0.074-0.889,0.15-1.779,0.225-2.67
					c1.967,1.855,4.178,3.477,6.633,4.775c16.045,8.494,33.761,15.049,53.381,19.711c-16.635,9.846-27.813,27.976-27.813,48.667
					c0,15.794,6.517,30.089,16.997,40.354c-4.714,6.063-6.95,13.551-6.255,21.238l15.523,171.967
					c0.46,5.101,2.155,9.78,4.752,13.791c-3.382,4.704-5.456,10.418-5.654,16.613l-6.967,217.029
					c-0.115,3.562,0.419,7.036,1.489,10.326c-10.608,3.464-25.193,8.21-42.999,13.99l-1.319,0.43
					c-15.854,5.145-24.569,22.229-19.425,38.086c0.382,1.179,0.852,2.309,1.363,3.411h85.926c6.934-2.269,12.478-4.094,14.731-4.86
					c15.778-5.376,24.244-22.585,18.87-38.366c-0.725-2.13-1.682-4.113-2.806-5.959c2.746-4.391,4.425-9.537,4.604-15.113
					l6.967-217.03c0.202-6.276-1.528-12.31-4.895-17.458c4.093-5.693,6.261-12.81,5.583-20.325l-12.547-138.994
					c6.697,3.864,14.456,6.087,22.727,6.087h53.81c8.272,0,16.031-2.223,22.729-6.087l-12.547,138.994
					c-0.679,7.516,1.488,14.632,5.582,20.326c-3.367,5.147-5.097,11.181-4.895,17.456l6.967,217.033
					c0.179,5.573,1.856,10.718,4.601,15.107c-1.13,1.864-2.085,3.852-2.805,5.966c-5.373,15.778,3.093,32.987,18.876,38.365
					c2.251,0.766,7.793,2.59,14.726,4.858h85.926c0.512-1.104,0.982-2.234,1.365-3.414
					C852.571,1980.73,843.856,1963.646,828.003,1958.503z M528.67,1332.235c0.022-0.222,0.045-0.442,0.067-0.664
					c0.158,0.102,0.302,0.217,0.462,0.315C529.019,1331.997,528.848,1332.121,528.67,1332.235z M647.208,1036.394
					c0,4.353-3.677,8.029-8.029,8.029c-4.353,0-8.029-3.677-8.029-8.029v-22.289c0-4.353,3.677-8.029,8.029-8.029
					c4.352,0,8.029,3.677,8.029,8.029V1036.394z M665.587,1082.235v-0.104v-7.621c0.114-0.079,0.235-0.146,0.348-0.227v7.951
					c0,0.801,0.063,1.587,0.136,2.368C665.76,1083.875,665.587,1083.074,665.587,1082.235z M697.267,1082.132v0.104
					c0,0.829-0.17,1.621-0.475,2.343c0.077-0.807,0.126-1.62,0.126-2.447v-7.847c0.113,0.08,0.234,0.147,0.348,0.227V1082.132z
					 M731.704,1036.394c0,4.353-3.677,8.029-8.029,8.029c-4.353,0-8.029-3.677-8.029-8.029v-22.289c0-4.353,3.677-8.029,8.029-8.029
					c4.352,0,8.029,3.677,8.029,8.029V1036.394z"/>
				<g clip-path="url(#SVGID_10_)">
					<path fill="#75CBEC" d="M635.851,1124.54c2.088,3.894,5.055,7.242,8.616,9.818v11.726c0,4.853,3.969,8.822,8.821,8.822
						c4.852,0,8.821-3.97,8.821-8.822v-6.236h10.496v6.236c0,4.853,3.969,8.822,8.821,8.822l0,0c4.852,0,8.822-3.97,8.822-8.822
						v-6.236h10.496v6.236c0,4.853,3.97,8.822,8.821,8.822c4.852,0,8.822-3.97,8.822-8.822v-11.726
						c3.561-2.576,6.527-5.925,8.616-9.818c34.519-8.841,60.232-40.298,60.232-77.473v-25.327c0-43.975-35.979-79.955-79.954-79.955
						h-51.709c-43.975,0-79.954,35.979-79.954,79.955v25.327C575.618,1084.242,601.332,1115.699,635.851,1124.54z M696.46,1014.104
						c0-14.968,12.247-27.215,27.215-27.215s27.215,12.247,27.215,27.215v22.291c0,14.968-12.247,27.215-27.215,27.215
						s-27.215-12.247-27.215-27.215V1014.104z M685.121,1073.285c0-3.34,2.732-6.072,6.073-6.072s6.073,2.732,6.073,6.072v8.847
						v0.104c0,3.34-2.733,6.073-6.073,6.073s-6.073-2.733-6.073-6.073v-0.104V1073.285z M671.66,1067.213L671.66,1067.213
						c3.34,0,6.073,2.732,6.073,6.072v8.847v0.104c0,3.34-2.733,6.073-6.073,6.073h0c-3.34,0-6.073-2.733-6.073-6.073v-0.104v-8.847
						C665.587,1069.945,668.319,1067.213,671.66,1067.213z M611.964,1014.104c0-14.968,12.247-27.215,27.215-27.215
						s27.215,12.247,27.215,27.215v22.291c0,14.968-12.247,27.215-27.215,27.215s-27.215-12.247-27.215-27.215V1014.104z"/>
					<path fill="#75CBEC" d="M787.235,1452.766c0-20.528-16.795-37.324-37.323-37.324h-57.438v-21.894
						c2,0.024,4.031,0.072,6.001,0.072c52.423,0,94.203-8.6,127.428-26.188c5.393-2.855,7.449-9.54,4.594-14.933
						c-2.854-5.394-9.542-7.45-14.932-4.594c-30.745,16.277-72.155,24.158-123.092,23.555v-29.464c2,0.024,4.031,0.073,6.001,0.073
						c52.423,0,94.203-8.6,127.428-26.188c5.393-2.855,7.449-9.54,4.594-14.933c-2.854-5.392-9.542-7.448-14.932-4.594
						c-30.745,16.275-72.155,24.16-123.092,23.555v-29.464c2,0.024,4.031,0.073,6.001,0.073c52.423,0,94.203-8.6,127.428-26.189
						c5.393-2.854,7.449-9.54,4.594-14.932c-2.854-5.394-9.542-7.449-14.932-4.594c-30.745,16.277-72.155,24.161-123.092,23.555
						v-29.602c3.201,0.061,6.392,0.115,9.517,0.115c52.421,0,94.202-8.6,127.428-26.188c3.141-1.663,5.292-4.738,5.775-8.258
						c0.483-3.522-0.757-7.063-3.333-9.512c-1.253-1.192-31.606-29.163-107.278-27.697c-6.099,0.116-10.95,5.156-10.833,11.257
						c0.117,6.099,4.98,10.951,11.257,10.833c36.745-0.707,61.016,6.107,75.288,12.267c-28.92,10.88-65.079,15.934-107.82,15.081
						v-28.794c0-6.101-4.946-11.046-11.046-11.046c-6.101,0-11.047,4.945-11.047,11.046v28.927
						c-39.946,0.214-73.985-4.798-101.446-15.131c14.252-6.158,38.483-12.978,75.32-12.255c6.169,0.209,11.14-4.731,11.257-10.833
						c0.117-6.1-4.734-11.14-10.833-11.257c-75.688-1.464-106.027,26.506-107.279,27.698c-2.576,2.448-3.817,5.988-3.333,9.511
						c0.483,3.521,2.634,6.595,5.775,8.258c33.23,17.592,75.002,26.189,127.428,26.189c1.021,0,2.081-0.031,3.11-0.038v29.465
						c-49.639,0.273-90.036-7.621-120.2-23.591c-5.389-2.85-12.079-0.798-14.932,4.594c-2.855,5.392-0.798,12.077,4.594,14.932
						c33.23,17.592,75.002,26.189,127.428,26.189c1.021,0,2.081-0.031,3.11-0.038v29.469c-49.639,0.29-90.036-7.625-120.2-23.595
						c-5.389-2.85-12.079-0.795-14.932,4.594c-2.855,5.393-0.798,12.077,4.594,14.933c33.23,17.591,75.002,26.188,127.428,26.188
						c1.021,0,2.081-0.031,3.11-0.037v29.467c-49.639,0.288-90.036-7.624-120.2-23.594c-5.389-2.852-12.079-0.796-14.932,4.594
						c-2.855,5.393-0.798,12.077,4.594,14.933c33.23,17.591,75.002,26.188,127.428,26.188c1.021,0,2.081-0.031,3.11-0.037v21.858
						h-57.438c-20.528,0-37.324,16.796-37.324,37.324c0,20.527,16.795,37.323,37.324,37.323h13.714v12.266
						c0,14.542,11.898,26.44,26.44,26.44h53.809c14.542,0,26.44-11.898,26.44-26.44v-12.266h16.566
						C770.44,1490.089,787.235,1473.293,787.235,1452.766z M651.312,1454.136c0,9.884-8.087,17.97-17.97,17.97h-6.041h-12.048
						c-9.884,0-17.97-8.086-17.97-17.97v-0.001c0-9.883,8.086-17.97,17.97-17.97h18.089c8.978,0,16.402,6.692,17.701,15.322
						C651.174,1452.358,651.312,1453.229,651.312,1454.136L651.312,1454.136z M732.405,1472.105c-9.884,0-17.971-8.086-17.971-17.97
						v-0.001c0-0.546,0.114-1.063,0.162-1.597c0.827-9.131,8.471-16.373,17.809-16.373h18.088c9.884,0,17.97,8.087,17.97,17.97
						v0.001c0,9.884-8.086,17.97-17.97,17.97h-17.792H732.405z"/>
					<path fill="#75CBEC" d="M860.34,1380.683c0.483,5.766,5.311,10.126,10.996,10.126c0.31,0,0.621-0.013,0.934-0.038
						c6.079-0.509,10.595-5.849,10.088-11.929c-6.855-81.985-19.286-176.331-19.411-177.275c-0.8-6.049-6.359-10.284-12.398-9.502
						c-6.048,0.8-10.304,6.352-9.504,12.4C841.168,1205.401,853.531,1299.236,860.34,1380.683z"/>
					<path fill="#75CBEC" d="M871.349,1404.665c-6.1,0-11.046,4.946-11.046,11.047c0,0.654-0.433,66.55-37.887,158.315
						c-2.307,5.649,0.405,12.097,6.052,14.401c1.368,0.558,2.779,0.823,4.171,0.823c4.355,0,8.485-2.592,10.23-6.875
						c39.077-95.741,39.526-163.813,39.526-166.665C882.396,1409.611,877.449,1404.665,871.349,1404.665z"/>
					<path fill="#75CBEC" d="M492.958,1390.771c0.313,0.025,0.624,0.038,0.933,0.038c5.683,0,10.513-4.36,10.996-10.126
						c6.809-81.446,19.171-175.281,19.296-176.218c0.8-6.049-3.456-11.601-9.504-12.4c-6.018-0.782-11.597,3.453-12.399,9.502
						c-0.124,0.944-12.555,95.29-19.411,177.275C482.363,1384.922,486.879,1390.262,492.958,1390.771z"/>
					<path fill="#75CBEC" d="M536.76,1588.429c5.647-2.305,8.358-8.752,6.052-14.401c-37.151-91.027-37.879-157.117-37.887-158.315
						c0,0,0-0.001,0-0.002c0-6.101-4.946-11.045-11.046-11.045s-11.047,4.946-11.047,11.047c0,2.852,0.45,70.924,39.526,166.665
						c1.748,4.283,5.876,6.875,10.23,6.875C533.979,1589.252,535.394,1588.986,536.76,1588.429z"/>
					<path fill="#75CBEC" d="M596.291,1500.637c-6.077,0.548-10.558,5.919-10.009,11.994l15.523,171.967
						c0.518,5.739,5.336,10.055,10.989,10.055c0.333,0,0.669-0.015,1.005-0.043c6.077-0.551,10.558-5.919,10.009-11.996
						l-15.523-171.968C607.738,1504.57,602.358,1500.088,596.291,1500.637z"/>
					<path fill="#75CBEC" d="M612.366,1706.659c-6.068-0.169-11.199,4.585-11.395,10.683l-6.967,217.031
						c-0.196,6.1,4.588,11.202,10.687,11.396c0.121,0.008,0.241,0.008,0.361,0.008c5.935,0,10.842-4.715,11.034-10.69l6.967-217.031
						C623.249,1711.956,618.465,1706.854,612.366,1706.659z"/>
					<path fill="#75CBEC" d="M601.283,1956.064c-7.95,2.707-62.81,20.507-63.363,20.687c-5.804,1.885-8.981,8.112-7.099,13.917
						c1.516,4.671,5.847,7.641,10.506,7.641c1.129,0,2.278-0.176,3.411-0.543c2.265-0.733,55.566-18.029,63.669-20.788
						c5.775-1.967,8.862-8.241,6.895-14.017C613.335,1957.186,607.064,1954.097,601.283,1956.064z"/>
					<path fill="#75CBEC" d="M746.204,1694.609c0.338,0.028,0.672,0.043,1.005,0.043c5.653,0,10.471-4.315,10.989-10.055
						l15.523-171.967c0.548-6.075-3.932-11.446-10.009-11.994c-6.084-0.572-11.446,3.932-11.994,10.009l-15.524,171.968
						C735.646,1688.69,740.127,1694.059,746.204,1694.609z"/>
					<path fill="#75CBEC" d="M754.951,1945.776c0.12,0,0.241-0.004,0.361-0.008c6.099-0.193,10.883-5.296,10.687-11.396
						l-6.967-217.031c-0.196-6.098-5.338-10.877-11.396-10.683c-6.099,0.194-10.883,5.297-10.687,11.396l6.967,217.031
						C744.109,1941.062,749.014,1945.776,754.951,1945.776z"/>
					<path fill="#75CBEC" d="M822.081,1976.751c-0.554-0.18-55.413-17.979-63.363-20.687c-5.775-1.971-12.054,1.121-14.019,6.896
						c-1.967,5.775,1.12,12.05,6.895,14.017c8.103,2.759,61.404,20.055,63.669,20.788c1.133,0.367,2.282,0.543,3.411,0.543
						c4.659,0,8.99-2.97,10.506-7.641C831.062,1984.863,827.885,1978.636,822.081,1976.751z"/>
				</g>
			</g>
			<polygon fill="#EDCDC0" points="484.357,843.792 509.261,814.331 486.505,811.634 472.598,824.46 			"/>
			<polygon fill="#FAD9CA" points="403.976,838.096 399.226,928.011 417.751,929.327 421.493,872.966 435.582,932.729 
				452.104,929.327 445.688,870.444 467.678,926.979 482.066,920.068 465.348,860.374 496.828,897.967 507.833,882.386 
				462.028,807.085 			"/>
			<polygon opacity="0.46" fill="#E2E2E2" points="1456.023,1335.285 1597.167,1377.693 1611.356,1324.234 			"/>
			<polygon fill="#FAD9CA" points="1446.202,1304.877 1395.089,1277.404 1307,1263.038 1302.752,1273.39 1354.308,1287.234 
				1340.441,1304.877 1350.229,1335.285 1375.335,1352.639 1415.072,1345.455 1456.023,1335.285 			"/>
			<path fill="#1E1E1E" d="M1356.803,446.619c-39.503,0.189-72.123,28.114-75.037,63.158c-4.748-1.354-9.171-0.959-12.29-0.27
				c-1.023-16.454-8.562-31.741-21.546-43.419c-14.031-12.618-32.735-19.515-52.667-19.42c-19.93,0.097-38.73,7.172-52.934,19.924
				c-14.278,12.821-22.211,29.836-22.333,47.91c-0.123,18.074,7.578,35.015,21.683,47.701c14.031,12.618,32.735,19.515,52.667,19.42
				c6.253-0.03,12.396-0.747,18.319-2.11c12.956-2.983,24.867-9.062,34.615-17.813c13.686-12.289,21.521-28.433,22.257-45.667
				c2.481-0.732,7.174-1.571,12.041,0.433c0.938,36.273,33.805,65.304,74.308,65.111c6.253-0.03,12.394-0.747,18.317-2.111
				c12.956-2.983,24.869-9.062,34.615-17.813c14.28-12.821,22.212-29.836,22.334-47.91
				C1431.407,476.533,1398.054,446.423,1356.803,446.619z M1263.102,513.819c-0.111,16.275-7.286,31.625-20.199,43.221
				c-12.991,11.665-30.219,18.137-48.515,18.223c-18.293,0.088-35.434-6.22-48.268-17.761
				c-12.758-11.474-19.722-26.756-19.612-43.03c0.111-16.275,7.284-31.625,20.2-43.221c8.905-7.996,19.8-13.551,31.666-16.283
				c5.444-1.253,11.095-1.913,16.849-1.94c18.293-0.088,35.434,6.22,48.268,17.762
				C1256.247,482.263,1263.211,497.545,1263.102,513.819z M1424.641,513.771c-0.111,16.275-7.286,31.625-20.201,43.221
				c-12.991,11.665-30.218,18.136-48.513,18.223c-37.659,0.179-68.11-27.092-67.881-60.792
				c0.196-28.546,22.339-52.686,51.995-59.514c5.355-1.233,10.96-1.902,16.721-1.929
				C1394.419,452.8,1424.87,480.071,1424.641,513.771z"/>
			<path fill="#EFCBBB" d="M1274.024,550.401l-0.25,58.895c0,0-16.465-4.96-14.65-14.256
				C1260.938,585.745,1274.024,550.401,1274.024,550.401z"/>
			<g>
				<path fill="#F2F2F2" d="M1461.891,1012.649l16.209,7.956c10.524-21.438,18.511-41.883,24.396-61.317l-17.375-4.836
					C1479.285,973.542,1471.555,992.964,1461.891,1012.649z"/>
				<g>
					<path fill="#82BBD1" d="M1490.114,759.007c-24.268-48.233-58.228-76.745-69.902-85.614l0.013,11.17l-2.721,9.852
						c13.955,12.057,38.2,36.371,56.481,72.708c15.89,31.583,24.087,65.854,24.366,101.859c0.211,27.486-4.244,56.08-13.229,85.471
						l17.375,4.836C1529.397,870.46,1512.167,802.84,1490.114,759.007z"/>
				</g>
				<circle fill="#F2F2F2" cx="1458.478" cy="1063.977" r="58.861"/>
				<circle fill="#E0E0E0" cx="1458.478" cy="1063.977" r="29.729"/>
			</g>
			<polygon opacity="0.04" fill="#1E1E1E" points="1097.566,841.357 1097.566,1593.994 1012.502,1593.994 1023.895,1636.919 
				1132.047,1636.919 			"/>
		</g>
	</g>
</g>
</svg>
