{
    "name": "humanlysw",
    "host": "92.204.129.219",
    "protocol": "sftp",
    "port": 22,
    "username": "humanlysw",
    "password": "h3KH8n0A!7SB",
    "remotePath": "./public_html/imagenologia",
    "uploadOnSave": false
}
